X,Y,Z
105.068654509,203.027144427,258.005731557
236.085686139,50.3326632437,157.426670053
242.840412027,49.2568012557,147.348072026
244.478887372,52.8127386271,149.304761114
234.316784641,46.4697679177,158.438058948
234.316784641,46.4697679177,158.438058948
237.489708975,53.6608796889,161.273320864
244.053336472,45.8445259406,157.524401152
241.607235748,41.0540145205,154.840952651
244.945974161,41.2301301714,150.407072592
254.191259285,52.0043034339,150.030526103
254.080447621,52.1353648275,149.700172024
243.168090423,46.9792224384,159.504065401
241.912329698,43.9119490003,158.335271381
248.589134063,47.7371016182,152.712924855
243.39206106,38.2243697408,148.895745313
230.479812095,43.6590617754,160.233422607
237.174802079,47.5809535433,152.845659238
239.918867198,51.2962585865,152.342476881
236.182036877,55.7275752507,154.507785919
228.949792205,55.2993023386,166.407614594
224.359667289,51.3260731771,163.042246881
210.540822987,50.977261681,160.402779823
184.716812177,52.2491646689,137.118348711
144.72105951,51.1333529811,160.304920557
111.107047901,44.8862087714,151.544181716
98.7119362448,50.5369476276,164.768189471
93.2571759057,64.0355522738,172.608718541
91.5718466627,62.1038566682,178.369683285
61.9553427355,57.581760275,149.419140844
44.4124590931,87.237015378,142.629950456
51.7438199609,133.03529859,160.391375787
57.3185757114,142.471450411,145.318144475
45.4066335914,162.294169524,180.0359016
68.9805155927,196.528522437,173.161604979
70.6802974758,204.035759314,169.993825981
77.1405690377,214.571949305,155.862581868
106.725899345,227.636001352,167.177873082
111.023520541,237.975063538,161.580815565
140.123004396,230.417507146,141.672372264
172.38212622,247.896653316,186.825429838
200.162411371,265.218339748,177.618410079
222.004020079,253.496043642,174.083313587
250.44743022,239.830539056,148.296678915
260.109986603,231.458408855,149.620076396
256.700852353,228.030476902,151.597103783
264.937198246,184.662797386,156.197402857
280.472132295,161.064551832,169.052915018
252.270929357,115.219830475,162.922220439
254.913377598,87.1363241107,136.806040627
256.217341632,77.9659999848,153.461516571
260.556699944,73.3796504042,157.034910235
237.563941129,50.5827200505,158.120522754
238.081640963,50.0056031669,159.674139469
239.159448466,54.9429951325,162.628487314
236.145290278,46.1939003607,160.052621944
235.520555717,42.7507748985,160.513564463
238.518267071,47.5597222032,160.712885799
245.305303555,49.1480328799,150.595876762
243.896073013,48.7899635322,153.308626627
238.705236457,52.7623428902,164.56432243
236.818337396,47.2934517013,162.918481557
240.924125332,51.9481117697,161.471779111
