X,Y,Z
230.497947767,64.9809450649,164.592977655
234.054470227,60.8229414033,161.439767273
240.072970362,64.2108842898,155.665008331
235.133892051,61.9107827726,160.11616326
228.131618632,67.0142674145,166.288872977
226.445230921,61.5930860886,161.546392708
221.366732113,62.4590763409,145.328828259
170.797829393,36.317841742,149.399216099
154.806894615,23.5451699577,184.225440778
84.4112258018,59.6228956322,146.110981349
74.3854653125,96.0997475241,159.946139415
83.5447217071,108.691888829,136.114272833
87.76923393,112.180130329,139.16261905
75.8803809883,202.797839193,146.985370656
78.4380337349,213.237280388,144.600740052
127.460401341,248.8557538,176.823671825
172.021067082,240.39190246,150.481648972
202.587736409,258.958882206,170.993072722
221.592753266,253.308910645,159.93188009
241.405537103,210.232576425,164.257196872
278.090431573,151.942591822,136.089004382
287.083712073,136.70166545,157.623763974
244.083709268,82.4591364067,163.757298641
232.092768062,73.6237520937,162.204028356
233.876176704,66.0274779182,162.290660557
232.933497928,56.0052698244,150.809259934
239.278265856,60.7299042357,153.426030355
