X,Y,Z
246.492201797,46.5369852461,159.247266691
241.791652178,34.7335200436,155.287348208
241.592858809,33.942145684,155.329364196
243.004651601,37.8294618869,156.185356954
253.001945055,42.048406284,148.271215177
248.734056014,50.9162683069,151.608442344
242.028772629,50.7819114453,163.252133026
239.904155844,38.2296707392,157.877642449
227.804201854,36.4833133115,158.087435271
211.862883885,53.4149827204,145.226241562
171.883669978,28.4372292696,153.350222851
146.783283644,48.5928963429,138.234420865
129.959904063,33.5051029999,177.658226929
94.3953890356,36.1308392093,166.923476026
69.2687375126,46.149689132,152.308616618
65.2221653998,57.6072653483,156.328658909
57.7446897366,61.1421929539,151.951183133
50.7259393447,84.7457008697,160.40454331
61.1054262802,95.2072655008,150.892858243
49.6924309795,118.09521772,177.805183785
65.0337942762,154.412152467,149.106357874
61.3835437995,179.57227409,161.791402827
-143.144796514,364.986143731,258.020310625
-135.342253036,372.937050716,258.015846337
68.7050756734,220.15867425,154.458166036
75.1175241409,222.059858468,156.043820241
94.6317901907,238.498704771,167.053888453
104.876090733,227.297108626,138.906847321
140.618828069,267.950186927,164.890702682
172.160720056,272.535113183,147.555222281
185.868398767,291.317657363,165.167024497
201.133072754,251.121434922,170.589583532
237.193768583,233.500732322,163.690891251
252.960768266,222.617080419,162.654024552
262.808725742,214.558515415,149.338201069
259.720508969,184.398315174,157.672266819
270.614263297,158.396607492,152.35038376
261.296012977,133.453102107,158.093468086
251.508469218,115.681851619,136.460290979
260.725801137,89.7485374265,160.49672043
259.349379375,79.0752835556,160.136349579
250.168680207,73.9304686961,168.810968334
247.328174692,66.3443304905,164.214986533
259.783393915,61.1296814022,154.815284646
259.371698667,61.6381223929,153.546206337
252.235534148,56.4998387069,157.144670814
252.79036802,53.7712818909,152.742020335
