X,Y,Z
233.262177928,59.0123140389,164.918544253
233.156925412,57.5359523077,164.243117703
232.951777131,55.6518702498,163.01148366
232.779104741,53.9673010052,161.945010524
233.197065048,54.4174791987,162.269221592
233.682392242,54.5679874552,162.298948087
233.526067144,53.4265866041,161.725511643
232.020970968,51.3768613676,161.376822193
225.795300638,44.9169203843,166.094995865
204.8850276,39.7635072562,162.81239698
185.543527999,44.87108995,163.732820064
160.844438259,50.0061502312,163.594205477
134.980050764,67.8626460843,163.77762679
115.753103858,90.3938633179,163.821372233
104.620211312,111.52288535,173.067265781
101.13790853,142.693789759,169.626993819
107.714423839,166.615604739,167.022229808
122.641088891,199.124225069,172.864677668
147.770017945,209.806764883,166.582539498
171.061554658,204.400740032,168.326041469
186.626672611,192.497823089,161.645851832
204.781930064,168.18557817,160.254215002
211.939841678,139.887419749,161.364507825
215.50798125,117.175603675,162.440443589
219.729168471,100.768681215,162.394864557
222.749454635,88.7613911175,162.233265352
226.932805729,78.5327383886,159.146045799
