X,Y,Z
164.922668453,10.0218195347,150.597076266
163.284997176,12.5743121693,149.286473499
164.607237598,14.4912673029,147.742689039
165.447855601,11.9956750942,147.445523434
165.960321545,13.8610801463,147.891844707
164.264447524,14.5055013388,148.936367193
163.678067548,15.4778443896,148.957198928
159.714057417,49.3773521439,154.359809896
158.604310046,64.1177701198,125.563710178
158.94014537,140.729359418,152.362057909
149.620853809,172.184707479,225.211244029
136.492251927,194.288555744,185.711454583
