X,Y,Z
161.996745454,14.9098373828,140.308991214
162.628982998,13.6158602012,140.190058239
165.029500678,13.5700201712,137.195468708
167.384454968,13.9061783916,134.755534762
165.77377245,9.78590006398,137.673766019
164.629325234,10.4378437579,140.254290162
163.877274187,11.0129237803,141.984161759
163.435330552,11.8253735395,142.804547027
163.170913066,12.5961065174,142.992737839
162.917399867,12.593973049,143.219333656
163.040650552,13.1700085432,142.953190112
161.812147301,13.1437492644,142.606928832
163.940994024,18.2543018723,140.224720955
163.607821466,27.0179911478,140.177597223
164.569710766,38.6640812027,140.373610268
163.10945131,54.3919464093,146.170354585
161.116100486,70.9937709221,148.333036947
158.447757328,87.7831597338,156.279820102
156.311361102,102.079339437,161.582201086
153.984547768,116.97057904,176.196370117
146.512127443,136.29417707,173.8527525
150.093583959,170.342879831,165.775066512
150.336125316,200.469735702,158.632135771
152.489220319,226.155062745,154.579730632
