X,Y,Z
80.2761989165,-4.72034630672,258.001345375
153.921895319,-1.85620843132,164.382624133
156.708247667,-2.43232957706,166.025159233
154.519729539,0.0226623350687,162.303510116
154.901522079,-0.502944135862,163.873879644
154.054582531,-2.70903059191,163.99172561
154.605678272,-5.31573465898,164.574594521
154.808580357,-6.14500041515,167.45496386
154.628438359,-5.8562829186,167.564815182
151.520734269,0.503711793608,157.285335501
160.763646661,94.0345433044,184.494519727
161.436998936,134.669360614,136.350926052
195.100365387,172.783879778,130.358218161
162.518382671,201.811502917,179.53291702
172.392875898,214.65476275,180.903915108
172.225368075,213.273905606,177.125252084
179.897672356,227.815197254,168.768753388
148.261500008,304.597966862,149.299998365
150.59239088,306.808599835,155.519915586
151.425652509,301.28216958,161.988903135
148.233517901,299.047281148,155.570873911
157.454553322,312.631888122,169.902863737
149.948015866,307.390871154,153.503269964
144.609162511,290.878750024,146.853690751
153.826648661,297.097882477,163.791478799
152.621837382,296.265906576,162.540598585
153.759642735,297.071126256,164.97348977
153.87144135,298.041526584,158.167933823
152.226800237,296.882177951,154.866183099
152.292931111,297.649953863,160.553756185
147.563217337,294.819729756,152.742831125
152.927760995,300.575682916,153.596627551
