Time (ms),Raw Data,Data with Removed Offset,Filtered Data,Orientation
2,8.94,8.94,0.386462049144,9.76282356127
29,8.75,-0.19,0.361542508079,9.71904080338
72,8.94,0.095,0.350020298113,9.68536410479
117,8.87,-0.00666666666667,0.334601286671,9.65011720848
164,8.9,0.025,0.321217714723,9.61769083281
209,8.94,0.06,0.309925688025,9.58839533505
346,8.63,-0.26,0.285288706762,9.54696542864
392,8.87,0.0171428571429,0.273697188291,9.51770129019
439,8.67,-0.185,0.253868438975,9.48105651275
484,8.87,0.0355555555556,0.244431120685,9.4546415128
530,8.59,-0.248,0.223144107858,9.41726443771
576,8.98,0.177,0.221149371618,9.39836219297
622,9.1,0.274,0.223434020022,9.38546447105
713,8.75,-0.092,0.209798310404,9.35799435543
804,8.75,-0.08,0.197270791764,9.33171172939
896,8.55,-0.265,0.177287563102,9.29791957874
941,9.1,0.324,0.183629707576,9.28936383126
987,8.67,-0.153,0.169077742746,9.26258972165
1034,8.98,0.177,0.169420209276,9.25037381923
1081,8.75,-0.084,0.158465258374,9.22874345818
1128,8.67,-0.152,0.145044341194,9.20458987103
1175,8.63,-0.2,0.130128625587,9.1797512689
1221,8.63,-0.165,0.117370686687,9.15598639999
1268,8.59,-0.158,0.105466851972,9.13151971242
1315,9.06,0.328,0.115086604287,9.12842802956
1361,8.83,0.067,0.113007897249,9.11552746288
1455,8.79,-0.001,0.108079518108,9.10145543106
1503,8.94,0.18,0.111188525555,9.0944759709
1549,8.87,0.083,0.109969980667,9.0847722336
1596,8.83,0.054,0.107550487901,9.07375883734
1643,8.83,0.046,0.104889758738,9.06322153261
1689,8.83,0.03,0.101652394237,9.05313973874
1736,8.55,-0.27,0.0855864556411,9.03138981253
1783,8.75,-0.062,0.079206529221,9.01922578101
1830,8.67,-0.158,0.068952470382,9.00412930909
1876,9.14,0.351,0.0811449339229,9.01000278172
1923,8.94,0.12,0.0828245762741,9.00697667345
1970,8.79,-0.045,0.077298924327,8.99759711896
2017,8.83,0.01,0.0743896994924,8.99035216363
2064,8.67,-0.146,0.0648626053719,8.97650385211
2111,8.83,0.03,0.0633555507179,8.97017072497
2204,8.71,-0.09,0.0567262356188,8.95892396078
2251,8.79,0.002,0.0543605080134,8.95162164823
2298,8.67,-0.142,0.0458721574302,8.93944759498
2344,8.75,-0.054,0.041554843864,8.93125807857
2391,8.59,-0.222,0.0301617896702,8.91650603787
2438,8.55,-0.207,0.019909664985,8.9006625683
2485,8.39,-0.328,0.00487008686638,8.8785874426
2532,8.75,0.072,0.00777200559339,8.87302881321
2579,9.34,0.67,0.0363990621151,8.89321523038
2672,9.18,0.443,0.0539757700218,8.90561247706
2719,8.98,0.208,0.0606339910132,8.90882813065
2766,9.18,0.381,0.0744829009249,8.92055045662
2812,9.02,0.182,0.079130693065,8.92484950124
2859,8.75,-0.123,0.0703929066637,8.9172910371
2906,9.1,0.227,0.0771627806959,8.92518925319
3000,9.3,0.376,0.0900810354647,8.94139172197
3047,9.18,0.181,0.0940113168052,8.95170637599
3094,8.87,-0.208,0.080955850887,8.94817434011
3140,8.94,-0.15,0.0709719990528,8.94782097647
3187,9.1,0.05,0.0700654130955,8.95439943212
3234,8.83,-0.212,0.0578721766821,8.94902184375
3280,8.9,-0.127,0.04988044834,8.9469027079
3327,9.1,0.101,0.05209026475,8.95352085883
3374,9.1,0.093,0.0538587271354,8.95985291768
3420,8.94,-0.102,0.0471212037888,8.95899470782
3468,8.83,-0.196,0.0366114632276,8.95341847304
3515,8.71,-0.269,0.0234003687583,8.94289588201
3562,8.79,-0.142,0.0162503755164,8.93628643772
3608,8.9,-0.024,0.0145104161979,8.93471783308
3702,8.9,-0.02,0.0130185861349,8.93321703672
3748,9.06,0.16,0.0193723574321,8.93869766132
3795,9.49,0.567,0.043045424014,8.96252957914
3842,9.53,0.548,0.0648738022188,8.98706041727
3888,9.14,0.115,0.0670406775282,8.99367175067
3936,9.41,0.381,0.0806126365856,9.01166895461
3983,8.75,-0.326,0.06303542304,9.00035742447
4030,8.59,-0.478,0.0396473275643,8.98261832974
4076,6.08,-2.976,-0.0907142802198,8.85714278464
4123,5.65,-3.135,-0.222313879862,8.71850313472
4168,5.53,-2.93,-0.339362817497,8.58066924703
4214,6.59,-1.533,-0.390961842617,8.49461580132
4305,8.16,0.284,-0.361784322361,8.48015089575
4351,8.51,0.767,-0.312988782598,8.48144122475
4398,8.32,0.679,-0.270106695094,8.47446237898
4445,8.63,1.071,-0.212132798958,8.48118602141
4493,8.63,1.149,-0.153293206404,8.48761901155
4539,9.18,1.711,-0.0727027946896,8.5175495336
4586,8.83,1.302,-0.0132765929386,8.53105626721
4633,9.02,1.217,0.0399062952485,8.55219252228
4679,8.9,0.76,0.0710347936718,8.56722768291
4726,8.83,0.353,0.083223698286,8.57858690964
4773,9.02,0.319,0.0934159304741,8.5976684911
4819,8.87,0.083,0.0929656664693,8.6094409464
4866,9.02,0.197,0.0974629042118,8.62718875723
4913,9.1,0.207,0.10219801756,8.64762763057
4961,8.98,0.04,0.0995092968024,8.66199555617
5054,8.63,-0.345,0.0802938712926,8.66061243948
5101,8.63,-0.29,0.0642866598535,8.65928911272
5147,9.06,0.16,0.0684241943688,8.67661120308
5194,9.49,0.586,0.0907981681195,8.71177269902
5241,9.26,0.297,0.0997119433069,8.73547168786
5287,9.53,0.524,0.118053236968,8.76981787524
5334,10.08,1.023,0.15717263726,8.82645495168
5383,8.71,-0.468,0.130147424676,8.82142079049
5430,6.2,-2.947,-0.00287273383317,8.70810096503
5476,4.94,-3.917,-0.172074191389,8.54521199078
5521,4.39,-4.063,-0.340272687065,8.36558882641
5567,5.61,-2.419,-0.430132742012,8.24646913148
5613,7.57,-0.157,-0.418325650696,8.21722645355
5704,8.28,0.702,-0.369895765783,8.2199400535
5751,8.0,0.543,-0.330432742826,8.21043239698
5798,8.87,1.539,-0.249620157191,8.23894444888
5845,8.36,1.095,-0.191494379723,8.24417748662
5892,8.98,1.887,-0.101644394108,8.27598591627
5938,8.71,1.59,-0.0285173142558,8.29474765051
5986,8.94,1.569,0.0405408025747,8.32264087692
6033,8.63,0.859,0.0759214838182,8.33592751991
6079,8.83,0.635,0.100089553324,8.35728548251
6126,8.9,0.383,0.112319319164,8.38074616254
6173,9.02,0.37,0.123458442605,8.40838008288
6219,8.9,0.176,0.125729730044,8.4296320251
6266,8.79,-0.024,0.119257153441,8.44521015593
6313,9.14,0.334,0.128540143024,8.47524480895
6360,8.51,-0.374,0.106816136906,8.47674722023
6454,8.79,-0.047,0.100166911474,8.49028863657
6501,8.67,-0.175,0.0882718862682,8.4980572712
6547,8.94,0.122,0.0897298986464,8.51716174808
6594,8.83,-0.019,0.0850296791392,8.53068524505
6641,8.59,-0.259,0.0701578266948,8.53324932698
6688,8.47,-0.348,0.0520815330663,8.5305151598
6734,8.59,-0.173,0.0423516186121,8.53308659424
6781,8.67,-0.062,0.0378406651438,8.53900514165
6828,8.83,0.11,0.0409599977059,8.55158438367
6874,8.9,0.211,0.0483105548731,8.56664583316
6922,8.71,-0.018,0.0454440557093,8.57284280437
6969,8.94,0.22,0.0529898298218,8.58871442234
7015,8.75,0.003,0.0508288494823,8.59568653974
7062,7.69,-1.038,0.00376052088011,8.55653516009
7153,8.43,-0.184,-0.00435606594573,8.55106524762
7198,9.18,0.582,0.0209911683813,8.57825309042
7244,8.75,0.081,0.023585254134,8.58567743446
7292,8.0,-0.685,-0.00704575238281,8.56035953629
7338,7.96,-0.658,-0.0351854627206,8.53440695435
7385,8.98,0.449,-0.0142549000572,8.55366922858
7432,9.49,0.951,0.0274715244789,8.59414530933
7479,9.61,0.993,0.0692097752446,8.63805908183
7526,9.69,1.006,0.109705717422,8.6835328042
7573,9.1,0.322,0.118882859502,8.70153601456
7620,9.45,0.531,0.136698023934,8.73389091481
7666,9.1,0.079,0.134203830699,8.74971722464
7713,9.38,0.367,0.144267236531,8.77696334032
7806,9.06,-0.016,0.137339140388,8.78919856214
7853,8.98,-0.202,0.122670052427,8.79744660294
7900,8.9,-0.384,0.100767516935,8.80187982217
7947,9.02,-0.256,0.0853450281484,8.81130880838
7994,9.1,-0.129,0.0760792356191,8.82378846657
8041,9.14,-0.038,0.0711477728357,8.8374577851
8088,9.14,0.017,0.068807051274,8.85053620086
8134,9.18,0.053,0.0681237377451,8.86477839362
8181,9.26,0.16,0.0720954015236,8.88186319115
8228,9.34,0.224,0.0786619942077,8.9016677122
8274,9.18,0.068,0.0782010932616,8.91369957156
8321,9.02,-0.104,0.0703248315944,8.91829476896
8368,8.83,-0.298,0.0544027385914,8.9144779274
8415,9.02,-0.101,0.0476849269086,8.91903947772
8462,8.67,-0.451,0.0261275756133,8.90827389966
8554,8.75,-0.328,0.0108192072651,8.90143197228
8599,9.02,-0.019,0.0095301706577,8.90655747836
8645,8.63,-0.397,-0.0080434780092,8.89460234118
8691,8.79,-0.182,-0.0155633400549,8.89008054937
8738,8.83,-0.095,-0.018997259734,8.88748336338
8785,8.47,-0.404,-0.0356403120375,8.86943622572
8878,8.08,-0.723,-0.0653537712981,8.83531016109
8925,8.55,-0.159,-0.0694019478936,8.82297665944
8973,9.1,0.419,-0.0482891133243,8.8349519351
9020,8.94,0.251,-0.0353513239374,8.83949299483
9066,9.06,0.344,-0.0189525733172,8.84902515976
9113,8.98,0.233,-0.00806106679745,8.8546869925
9206,8.87,0.127,-0.00222259303144,8.8553489493
9253,9.02,0.253,0.00881027120722,8.86246655072
9300,9.06,0.27,0.0201010851751,8.8710056056
9346,9.18,0.367,0.0350969700861,8.88436293875
9393,9.06,0.176,0.0411879825682,8.89195544782
9441,9.02,0.038,0.0410501711838,8.89749060889
9488,9.14,0.111,0.0440739903359,8.90797390176
9534,8.98,-0.053,0.0398776370908,8.91108747471
9581,9.1,0.063,0.0408771798343,8.91925386084
9628,8.98,-0.061,0.0364731923943,8.92187981922
9674,9.14,0.099,0.0391761262192,8.93130880556
9721,9.06,-0.008,0.0371367777834,8.93687191994
9768,8.94,-0.132,0.0298252655662,8.93700714183
9814,8.98,-0.08,0.0250776951001,8.93886565428
9861,9.1,0.06,0.0265873304513,8.94583123417
9956,9.02,-0.024,0.0244005211158,8.94903743122
10002,8.98,-0.064,0.0205791080641,8.95037589351
10051,8.9,-0.128,0.0141562710084,8.94819822426
10099,8.94,-0.08,0.0100860461003,8.94784382814
10146,8.94,-0.064,0.00688342489469,8.94750475201
10194,9.18,0.18,0.0143669773808,8.95755514949
10242,9.06,0.056,0.0161667063192,8.96198367643
10289,9.18,0.176,0.0230760438079,8.97140817318
10338,9.02,-0.008,0.0217326761682,8.97350872009
10386,8.9,-0.132,0.0150870586111,8.97033105576
10434,8.87,-0.142,0.00829643646938,8.96599390479
10481,9.02,0.023,0.00893204798924,8.96832850186
10529,9.06,0.059,0.0110964054259,8.97229131401
10577,9.14,0.123,0.0159338187289,8.9795410921
10624,8.98,-0.057,0.0127810064685,8.97956092996
10672,9.06,0.019,0.013049843606,8.98303818222
10721,9.06,0.031,0.0138258001395,8.98636511843
10769,8.87,-0.159,0.00635481738978,8.9813348406
10816,8.83,-0.168,-0.00118226232864,8.97479287763
10912,9.14,0.161,0.00582861731544,8.98193451714
10959,9.22,0.217,0.0149572182303,8.99222570696
11007,9.69,0.652,0.0424955581634,9.02238937293
11055,10.04,0.935,0.0810770968204,9.06637905175
11154,12.94,3.737,0.239116792988,9.23382948601
11203,11.49,1.907,0.311216714748,9.33136012655
11250,9.3,-0.534,0.274679348854,9.33000447847
11298,5.69,-4.168,0.0826294306641,9.17265291033
11343,3.8,-5.721,-0.168252181499,8.9404017234
11392,3.77,-5.244,-0.387668636469,8.71689353161
11440,5.26,-3.248,-0.511316183642,8.56745755665
11488,8.04,-0.08,-0.492671075301,8.54465641062
11536,9.69,1.688,-0.39840415466,8.59416778098
11584,10.43,2.428,-0.27622322643,8.67352786974
11633,11.49,3.449,-0.115187788196,8.79527945245
11682,12.08,4.184,0.07065921947,8.93727266486
11731,11.14,3.185,0.205287187223,9.03249304231
11780,10.59,2.451,0.302365758082,9.09982157546
11829,10.04,1.411,0.350290242103,9.14046398409
11878,9.85,0.597,0.360955110102,9.17113609052
11925,9.45,-0.411,0.327584726129,9.18319093103
11973,9.22,-1.06,0.267601659108,9.18478212818
12020,9.3,-1.098,0.208568884893,9.18976281238
12068,9.3,-1.059,0.153773910616,9.19452818958
12116,9.45,-0.796,0.112716704477,9.20557182708
12164,9.57,-0.472,0.0874403371231,9.22132547377
12212,9.57,-0.221,0.074106954977,9.23639811552
12260,9.69,0.056,0.0733242202917,9.25600659904
12308,10.24,0.696,0.100241497719,9.29854305898
12455,12.94,3.376,0.24184729525,9.45595741476
12504,11.81,1.937,0.315126033755,9.55771890831
12552,8.55,-1.559,0.234110564666,9.51415683266
12600,5.61,-4.432,0.0324020725961,9.34538638099
12648,4.0,-5.673,-0.21423332808,9.11431388249
12743,5.53,-3.613,-0.361156571923,8.95936972969
12791,8.87,0.119,-0.340400171761,8.9555064193
12839,10.94,2.259,-0.228032262414,9.04129290081
12888,12.24,3.422,-0.0702472092197,9.1795678895
12938,12.94,3.867,0.0999536864669,9.34212535144
12987,12.16,2.817,0.217407250242,9.46393756278
13035,11.1,1.835,0.287333196019,9.53466192358
13084,10.4,1.206,0.327045691722,9.57206910374
13133,9.49,0.111,0.317706382228,9.56852138773
13180,9.22,-0.547,0.2803265092,9.55345536591
13228,9.14,-1.149,0.2185390117,9.53558235214
13275,9.26,-1.39,0.149004444529,9.5236693681
13324,9.45,-1.239,0.0890032337538,9.52048475921
13372,9.61,-0.93,0.0449533547707,9.52435435981
13419,9.61,-0.667,0.0141767506537,9.52805668377
13467,9.69,-0.254,0.00258389891287,9.53505723416
13515,9.61,-0.087,-0.00128866966712,9.53829688999
13563,9.65,0.102,0.00317633421946,9.54312563666
13610,9.53,0.057,0.0055030451518,9.5425582364
13707,9.49,0.013,0.00582712651176,9.54028622795
13754,9.49,-0.014,0.00497003156398,9.53811243479
13802,9.53,-0.009,0.0043661294571,9.53776174722
13850,9.69,0.124,0.00953771021869,9.54434276325
13898,9.61,0.02,0.0099899782621,9.54718102051
13945,9.34,-0.25,-0.00124897241037,9.53822491657
13993,8.83,-0.733,-0.0328813982392,9.50760948687
14041,7.37,-2.107,-0.122542225975,9.41520404978
14090,6.08,-3.173,-0.254408633595,9.27102851637
14137,5.3,-3.596,-0.398860280484,9.09936730884
14185,4.59,-3.883,-0.549474064544,8.90443457686
14233,9.41,1.427,-0.464034253882,8.926289361
14280,16.4,8.425,-0.0797755290913,9.249365911
14330,17.5,8.838,0.305725635029,9.60602761836
14379,13.1,3.657,0.450595862449,9.75706645267
14427,9.57,-0.222,0.421520619737,9.7489798693
14475,8.59,-1.225,0.350344168437,9.69887902438
14523,8.12,-1.671,0.262964694993,9.63062661099
14571,8.0,-1.866,0.170932958422,9.56013723225
14618,7.88,-2.178,0.0693923458607,9.48750758859
14714,8.08,-2.236,-0.0302660757023,9.42666328811
14762,8.43,-2.235,-0.125573194795,9.38357912923
14809,8.87,-1.697,-0.193503460673,9.3613779254
14906,9.73,-0.084,-0.188769801318,9.37731286774
14953,9.96,0.923,-0.140709772083,9.40250149994
15001,9.81,1.087,-0.0876378434614,9.42011700794
15049,9.65,0.903,-0.0448141549047,9.43005448178
15097,9.41,0.557,-0.0187986921312,9.42918755863
15144,9.38,0.398,-0.000781151714744,9.42706125919
15192,9.26,0.14,0.00530459216781,9.41983946832
15240,9.41,0.152,0.0116459998772,9.41941412385
15289,9.65,0.259,0.0223387174373,9.42938198225
15336,9.61,0.097,0.0255662051946,9.43718981009
15384,9.65,0.063,0.027184408235,9.44638925402
15432,9.38,-0.199,0.0174068182524,9.44351935282
15479,9.45,-0.071,0.0135851329856,9.44379950082
15527,9.22,-0.265,0.00154234353408,9.43412500657
15575,8.83,-0.612,-0.0249801100641,9.40800964938
15623,8.08,-1.304,-0.0802700929634,9.35060191758
15671,6.63,-2.624,-0.190231465861,9.23299465074
15719,6.28,-2.711,-0.299200255355,9.10534141796
15767,5.65,-3.028,-0.417161901147,8.95597253838
15814,7.45,-0.828,-0.434921774655,8.89087175571
15862,13.73,5.668,-0.171102233449,9.10005952517
15912,14.71,6.24,0.106039455779,9.34256827375
15960,12.63,3.627,0.258244945162,9.48467868607
16010,9.65,0.329,0.261303572947,9.49182526189
16105,8.08,-1.284,0.194502572591,9.43079431531
16153,7.88,-1.409,0.125185722623,9.36375595895
16200,7.41,-1.859,0.0394125493232,9.27929821563
16248,7.81,-1.537,-0.0287332422944,9.21578280523
16296,8.04,-1.46,-0.0906046136316,9.16495559628
16343,8.47,-1.269,-0.141544760281,9.13491377806
16391,9.06,-0.781,-0.16918738691,9.13167537533
16440,9.49,0.116,-0.156859192588,9.14716517539
16488,9.53,0.678,-0.1207695658,9.16371451217
16535,9.65,1.108,-0.067651823993,9.18473585556
16583,9.61,1.068,-0.0185594131382,9.20311934393
16631,9.3,0.605,0.00839606234764,9.20730733964
16678,9.53,0.693,0.0379903949326,9.22125682691
16726,9.34,0.291,0.0489275952433,9.22638990425
16774,9.57,0.368,0.0627205846576,9.24124361878
16823,9.34,-0.015,0.0593608481668,9.24551269909
16870,9.34,-0.102,0.0523854769424,9.24959723389
16918,9.26,-0.21,0.0410429726957,9.25004692882
16966,9.3,-0.147,0.03291417593,9.25220632014
17013,9.3,-0.124,0.0261310272299,9.25427236443
17157,9.38,-0.009,0.0246123691464,9.2597073689
17205,9.26,-0.106,0.0189662054601,9.25972001888
17253,9.14,-0.222,0.00854962204027,9.25454471406
17301,9.18,-0.143,0.00199837441939,9.25132226537
17396,9.38,0.073,0.00506766106228,9.25688479791
17444,9.41,0.122,0.0101224589361,9.26350372305
17492,9.41,0.115,0.0146561471904,9.26983652265
17539,9.49,0.188,0.0221495245279,9.27935383742
17588,9.34,0.015,0.0218404620247,9.28197547397
17636,9.38,0.051,0.0231009821844,9.28621291736
17684,9.22,-0.117,0.0170446409421,9.28335063891
17731,9.38,0.059,0.0188583039689,9.28752863611
17779,9.34,0.007,0.0183456884663,9.28979688919
17827,9.22,-0.133,0.0118032565675,9.28677968138
17874,9.22,-0.137,0.0053707299307,9.28389290263
17922,9.22,-0.121,-9.20744805663e-05,9.2811309147
17970,9.34,0.018,0.000690016944684,9.28367573104
18019,9.57,0.255,0.0116834305146,9.29605307096
