Axis,Left Peak,Right Peak,Whole Duration,Peak Duration,Correlation Coefficient,Energy Ratio,Left Mean,Right Mean,Left Orientation (X),Right Orientation (X),Left Orientation (Y),Right Orientation (Y),Gesture Name,Class
0,1.160920303,-0.954575736,833,260,0.404342429,12.47784004,0.035593278,0.116739375,-0.112828725,-0.238281459,1.250119732,2.800347617,Right,Right
0,-0.954575736,0.423816029,1404,468,0.294537967,9.828664567,0.648643291,-0.805573468,0.669656786,-0.781795609,2.166481534,6.256033047,None,Non-gesture
0,1.211014835,-1.533817178,677,261,0.810707043,5.592547421,0.160635514,0.335279168,-0.087673781,-0.030732944,5.615706345,7.336608875,Right,Right
0,-1.533817178,0.696756054,1664,415,0.762217561,5.21961635,0.731217797,-0.487060729,0.755593613,-0.102433436,4.846584774,6.352165469,None,Non-gesture
0,1.140106817,-0.872644904,781,208,0.417939394,18.96256087,0.105909811,0.280536088,0.182071496,0.08244445,6.816608234,7.70946251,Right,Right
0,-0.872644904,0.372685693,1716,573,0.102615116,6.796857086,0.617488001,-0.51060464,0.853303559,0.058085737,5.744133804,5.595729618,None,Non-gesture
0,1.501486442,-1.106101746,782,260,0.419501522,4.424162482,0.098062439,0.256922868,0.330894155,0.247335096,7.378076277,7.862420024,Right,Right
0,-1.106101746,0.379614656,1508,416,0.486285,2.904500103,0.622677818,-0.511532589,1.08110649,0.13631661,5.856176253,7.073394839,None,Non-gesture
0,1.307390039,-0.815795712,728,209,0.47067689,2.47781457,0.07134661,0.149074041,0.339511442,0.50140738,7.262449823,7.978528904,Right,Right
0,-0.815795712,1.219664253,1405,1144,0.406727813,1.849039713,0.718458338,-0.895171643,1.118062004,-0.344039161,5.860425476,7.263986254,None,Non-gesture
0,1.219664253,-1.473725538,729,261,0.647725086,5.544338622,0.02246023,0.341465914,0.454559982,0.199198999,7.14709398,6.670196894,Right,Right
0,-1.473725538,0.68362617,1405,416,0.702462413,5.499741616,0.615992838,-0.766188947,1.125365851,-0.128238267,5.770980251,7.621894021,None,Non-gesture
0,1.298067297,-1.109109503,781,209,0.092651655,17.28178564,0.129476986,0.299643904,0.422388055,0.409230633,6.963818315,8.372445257,Right,Right
1,0.324071902,-1.044844071,1510,782,0.486530414,0.419432642,-0.130052768,0.060209053,-0.03218585,0.145719026,6.772794086,4.141391066,None,Non-gesture
0,-1.109109503,0.383312852,1303,469,0.262129743,3.78006659,0.585963263,-0.426061806,1.091767222,0.022081039,5.657923591,7.378332263,None,Non-gesture
0,1.125383258,-1.069194981,678,261,0.701974224,1.683833353,0.189678382,0.402194116,0.409502979,0.888548132,7.330751611,7.647934981,None,Right
0,-1.069194981,0.500984036,1146,468,0.641794352,1.582915147,0.56373995,-0.500174683,1.025867148,0.270963542,6.538677187,7.036733614,None,Non-gesture
0,1.63221103,-1.008112818,730,261,0.225675276,2.166796878,0.436759861,0.179336578,0.82138711,0.629520982,6.777864694,7.792773755,Right,Right
1,-1.170495817,0.366548183,1720,469,0.345723959,0.427127893,0.098783861,-0.019596121,0.837019131,1.053955108,6.356407741,4.231872677,None,Non-gesture
0,-1.008112818,0.307062587,1666,468,0.472801655,1.594143827,0.694283697,-0.762114954,1.349792587,0.07730742,5.208857377,6.03632657,None,Non-gesture
1,0.358547301,-0.467358534,1406,1041,0.625677505,0.219225223,0.183274091,0.17495793,0.139219778,0.392569104,3.937340032,7.638875561,None,Non-gesture
0,1.124977808,-1.129909327,781,208,0.57633596,9.954602827,0.073970739,0.25865489,0.613182449,0.54563067,6.786317253,7.745808038,Right,Right
0,-1.129909327,0.441896021,1249,416,0.785598914,4.948160687,0.417573542,-0.053943224,1.118267016,0.52640508,5.544314467,8.351003098,None,Non-gesture
