Axis,Left Peak,Right Peak,Whole Duration,Peak Duration,Correlation Coefficient,Energy Ratio,Left Mean,Right Mean,Left Orientation (X),Right Orientation (X),Left Orientation (Y),Right Orientation (Y),Class
0,-0.903530683,0.844051727,677,260,-0.798971948,3.965410835,-0.044210286,-0.130733929,-0.144991254,-0.419576829,-3.409482719,3.536813633,Left
0,-1.08688646,0.885232069,676,208,-0.721585584,1.864832778,-0.02813536,-0.006919901,-0.549521637,-0.282501801,5.678744911,3.783753948,Left
0,0.885232069,-0.973853499,1509,1250,-0.70883757,1.39658121,-0.537845922,0.671456675,-1.1020716,-0.038497131,4.908181966,6.910727884,Non-gesture
0,-0.973853499,1.015240181,677,208,-0.874731486,2.658024368,-0.089950873,-0.120292638,-0.60490825,-0.251866046,6.918576131,4.22654365,Left
0,1.015240181,-0.441002057,1665,469,-0.677329692,1.975490616,-0.574380598,0.659983631,-1.104580787,-0.092801597,5.869490959,6.160466512,Non-gesture
0,-1.018413316,0.942739334,728,208,-0.608800022,2.10181693,-0.070934094,-0.295452732,-0.621416928,-0.726637755,7.274446684,7.754600843,Left
0,0.942739334,-0.454521128,1560,417,-0.640051114,1.61389882,-0.402807648,0.685310692,-1.035916217,-0.408567695,5.744225971,6.548147049,Non-gesture
0,-1.167605037,1.002281888,781,208,-0.655437902,1.426224343,-0.086247823,-0.170497969,-0.851453886,-0.571695469,7.298971532,7.469227057,Left
1,-1.191302671,0.373451178,1665,522,-0.654511868,0.756711695,0.070435227,-0.030588971,-1.30015177,-0.685395537,7.305845755,4.483372126,Non-gesture
0,1.002281888,-0.918869189,1665,1405,-0.707948175,1.137127142,-0.664487807,0.672010625,-1.466789366,-0.057942621,6.019029796,6.351666838,Non-gesture
1,0.373451178,-0.576677428,1614,1092,-0.775353514,0.37822085,-0.320439665,0.008639827,-0.244390313,-0.116014757,6.420339795,4.341596617,Non-gesture
0,-0.918869189,1.080715595,780,207,-0.801579963,4.922944429,-0.018109533,-0.055111644,-0.590010515,-0.148841049,7.219487085,4.399875314,Left
0,-1.081323619,0.871864231,729,207,-0.689178168,3.631783185,-0.040836932,-0.021917585,-0.623096418,-0.343153157,7.603223092,4.519677071,Left
0,0.871864231,-0.305031245,1354,417,-0.62710146,2.50082665,-0.533468228,0.406988542,-1.18088496,-0.419387678,6.200351542,7.728337797,Non-gesture
0,-1.088879928,0.794887723,677,209,-0.671159145,2.212746843,-0.063357925,-0.101445796,-0.657823811,-0.679895657,7.439180641,8.31174873,Left
0,0.794887723,-0.950771185,1719,1458,-0.602076717,1.786998846,-0.643024021,0.39345169,-1.235404811,-0.301820553,6.153719958,5.917574461,Non-gesture
0,-0.950771185,0.908371107,730,260,-0.709386879,6.987606399,-0.023335499,-0.068726264,-0.628397075,-0.247348766,7.466953808,4.535112917,Left
0,0.908371107,-0.326647648,1251,469,-0.48346046,4.177677702,-0.508214615,0.373350245,-1.121351074,-0.274553301,6.199840626,7.751297889,Non-gesture
0,-1.11161252,0.856341041,677,209,-0.619572004,2.021041522,-0.112588554,-0.148260361,-0.554839591,-0.601351483,7.429908943,8.414225396,Left
0,0.856341041,-0.960677908,1823,1666,-0.79231134,1.762794473,0.384962097,0.233013374,-0.097609211,-0.304254402,4.145141878,4.538728675,Right
0,-0.960677908,0.618665071,1614,157,-0.236020921,5.791996253,-0.071361856,-0.24659431,-0.677042447,-0.210731984,7.449829414,4.468069378,Non-gesture
0,1.316102005,-0.516567031,677,208,0.138790556,2.778344079,0.080493707,0.118856692,-0.201658048,0.084985646,7.629234652,8.156285843,Right
0,-0.516567031,1.116871647,1407,1198,0.339324016,1.728383986,0.618553139,-0.345119635,0.538133841,-0.069178606,6.802450801,7.838399561,Non-gesture
0,1.116871647,-0.702900497,677,156,0.352201912,4.81899859,0.019557936,0.124121148,0.116035851,0.149760407,7.516037591,6.092553255,Right
0,-0.702900497,0.93338694,1301,1093,0.393725109,3.44519322,0.62324083,-0.33256967,0.782278544,-0.099901075,6.092973225,8.200723012,Non-gesture
0,0.93338694,-0.936455154,625,157,0.528921908,7.921368771,0.060122745,0.227912609,0.284807552,0.198273077,7.499295415,7.613946467,Right
0,-0.936455154,0.356827909,1303,469,0.620919292,6.248305986,0.408257397,-0.360152345,0.696098704,-0.07486245,6.055050556,8.063889017,Non-gesture
0,0.90096252,-1.170894436,626,208,0.7778909,6.589152988,0.104539055,0.182054875,0.331648508,0.361721325,7.455814087,8.532877982,Right
0,-1.170894436,1.230001247,1771,1510,0.478537341,5.068319511,0.456821334,-0.204877514,0.784488435,0.234723933,6.122135841,4.489957425,Non-gesture
0,1.230001247,-0.732163023,678,157,0.141126223,6.543296976,0.066649819,0.033975059,0.489426741,0.327512101,7.470644491,4.501515102,Right
0,-0.732163023,0.373884818,1146,468,0.212886238,4.256527335,0.569794836,-0.055498404,1.061222397,0.845181993,5.981841501,8.089329887,Non-gesture
0,1.138707141,-0.710055594,521,157,0.229477951,3.272649684,0.118193378,0.115117221,0.678677743,1.140513584,7.34607901,8.505902959,Right
0,-0.710055594,0.374130403,1719,468,0.352056355,1.652542751,0.657627623,0.07954052,1.268430649,0.930449233,5.857191863,6.209986894,Non-gesture
0,0.973821633,-1.243188623,676,157,0.548493651,7.831651662,0.013560896,0.058609297,1.028703837,0.494028039,7.431024283,4.44156779,Right
0,-1.243188623,1.204047906,1198,937,0.445274831,5.851029782,0.486910816,-0.157322512,1.186079589,0.795096685,4.518274417,7.965771666,Non-gesture
0,1.204047906,-0.864085589,573,157,0.568215119,3.904713011,0.062267901,0.182516507,0.835559374,1.012872266,7.274087995,7.854341546,Right
0,-0.864085589,0.35776824,1458,469,0.443326234,3.076376227,0.606109562,-0.539854555,1.360659381,0.652447637,5.850821067,7.511287044,Non-gesture
0,1.038662073,-0.961975302,729,157,0.43518324,8.341996735,0.064711775,0.121028808,1.009184253,0.986978535,7.192919002,8.057254777,Right
1,0.650561224,-0.51284094,729,260,0.744865221,4.190673429,0.074763704,0.062410726,0.869157358,0.472268139,7.377794797,4.708151524,Up
1,-0.51284094,0.315584351,1458,417,0.688776065,3.496369522,0.296960347,-0.38620583,0.991505205,0.997317727,7.324009133,7.981600282,Non-gesture
1,0.724074938,-0.605705873,677,312,0.783325299,3.821962464,0.038804362,0.125608054,0.970998886,1.095916206,7.672743966,8.858755764,Up
1,-0.605705873,0.672970124,1718,1354,0.751176455,3.493921877,0.399450581,-0.135654262,1.102665959,0.764103452,7.661027644,4.818436346,Non-gesture
0,-0.346206612,0.306466249,1719,1249,0.746961043,0.214310792,0.114874895,-0.078046235,1.081143605,0.631965197,7.262788904,4.623884569,Non-gesture
1,0.672970124,-0.624613852,729,261,0.614488063,2.217816171,0.002998661,0.059355133,1.03358416,0.480126213,7.742742031,4.849212511,Up
0,0.306466249,-0.456835832,833,417,0.616508041,0.425109198,0.046316952,0.026898022,1.041815532,0.558080152,7.765448093,4.871776073,Non-gesture
1,-0.624613852,0.616666597,1302,1042,0.472884726,2.086195059,0.329485475,-0.357258673,1.144326542,0.963899844,7.68555585,8.411308464,Non-gesture
0,-0.456835832,0.386480972,1302,990,0.337232012,0.377624935,0.098375424,-0.2720916,1.19079507,0.817185184,7.866428665,8.135502336,Non-gesture
1,0.616666597,-0.730941592,730,208,0.3776962,2.530279829,0.005917577,0.176374133,0.911733244,0.890415055,7.769478358,8.252220176,Up
0,0.386480972,-0.473413055,677,312,0.295156135,0.407888614,0.078358046,0.122593328,0.987772331,0.960052299,8.065153636,8.259817216,Non-gesture
1,-0.730941592,0.629559585,1458,1198,0.390093366,2.399851671,0.316517721,-0.376308985,0.88529199,1.076537901,6.869846766,8.174702179,Non-gesture
0,-0.473413055,0.316618432,1511,1094,0.360510086,0.299376604,0.218021018,-0.197996625,1.033838989,0.903463274,6.343021982,8.061572204,Non-gesture
1,0.629559585,-0.654245707,729,209,0.341661341,4.372709013,0.003044332,0.153618244,0.936825723,0.816309303,7.712182798,7.267967113,Up
0,0.316618432,-0.319591849,678,260,0.174979,0.243875891,0.079942156,0.035909139,1.013427545,0.915536767,8.046586165,7.745066707,Non-gesture
1,-0.654245707,0.683055807,1250,989,0.228214032,4.479852828,0.30535921,-0.23273298,0.884330116,0.96075957,6.819011667,8.664347412,Non-gesture
1,0.683055807,-0.653124518,677,260,0.329129044,3.804249884,0.006293822,0.18203532,0.934253265,0.898362975,7.73087508,8.482808769,Up
0,-0.374209886,0.394233618,1510,1198,0.349734207,0.332340316,0.117540893,-0.048455165,1.087827677,0.669610434,7.711677423,4.523940526,Non-gesture
1,-0.653124518,0.620514361,1563,1198,0.326720448,2.385699838,0.345511961,-0.506630889,0.820756832,1.13935847,6.877871041,7.658115092,Non-gesture
1,0.620514361,-0.765786437,676,261,0.349596386,1.997603504,-0.003475943,0.116325452,1.033937469,0.615905663,7.749967575,6.374861304,Up
0,0.394233618,-0.545362503,730,260,0.270815215,0.499604419,0.118240253,0.028159784,1.106712206,0.709852727,7.951968981,6.379889341,Non-gesture
1,-0.765786437,0.667297032,1303,989,0.359196258,2.07112059,0.318439847,-0.286836923,1.111046274,0.864897033,7.656605954,8.451500107,Non-gesture
1,0.667297032,-0.616355124,730,260,0.680877295,2.852128216,0.043120245,0.17556714,0.922945083,0.894605572,7.681515579,8.289505909,Up
1,-0.616355124,0.583704657,1562,1251,0.604745182,2.211759162,0.384693929,-0.456460839,0.986987993,1.086856481,7.665665006,7.402092774,Non-gesture
1,0.583704657,-0.70312578,678,260,0.386895075,3.453858239,-0.007891326,0.093743678,1.028839523,0.636556266,7.734695798,6.45989401,Up
1,-0.70312578,0.653545014,1250,938,0.25878574,3.288045384,0.307846145,-0.261303654,1.050871254,0.811913783,7.643141038,8.583121357,Non-gesture
1,0.653545014,-0.645550071,678,260,0.548669727,1.908814201,0.033948674,0.160652934,0.946196482,0.819678894,7.761021234,8.473314383,Up
1,-0.617701333,0.388502278,624,209,0.911570941,0.711529986,0.000209094,-0.020328413,0.937420227,0.885911259,7.758205469,4.736141891,Down
1,0.388502278,-0.541594458,1406,1145,0.679120308,0.599540666,-0.301558364,0.11616453,0.724935024,1.529384392,6.075990293,8.483329243,Non-gesture
1,-0.541594458,0.361826645,573,157,0.821821437,1.412880817,0.053876313,-0.089718633,1.158749376,1.420861185,7.650004605,8.184359511,Down
1,0.361826645,-0.456302824,1303,1093,0.646544428,1.142612474,-0.228559362,0.128657668,0.901151727,1.471811446,6.065299342,8.700746814,Non-gesture
1,-0.456302824,0.434559751,625,208,0.895549123,1.858435044,0.076573445,-0.109654454,1.136617016,1.234750256,7.599305658,8.060025629,Down
1,0.434559751,-0.47873615,1301,1042,0.716566993,1.063167197,-0.22856223,0.140752202,0.852105268,1.105873626,6.033220951,8.796229309,Non-gesture
1,-0.47873615,0.49761253,573,209,0.865400781,3.329726626,0.071198787,-0.095039752,0.903911616,0.876185911,7.639844897,8.33493343,Down
1,0.49761253,-0.60374507,1510,1198,0.617054921,2.081184424,-0.261350456,0.239737557,0.661964531,0.829685486,6.050691639,8.424878097,Non-gesture
1,-0.60374507,0.466540522,625,208,0.729548232,2.729643785,0.048004837,-0.099600862,0.572498501,0.764709542,7.734973983,7.613111489,Down
1,0.466540522,-0.513186493,1355,1093,0.808912518,2.356345632,-0.262571509,0.087597579,0.473426751,1.120050804,6.907709152,8.514159333,Non-gesture
1,-0.513186493,0.353249059,521,208,0.934350983,1.569394919,0.012274857,-0.083022338,0.781507825,1.0294588,7.671317074,8.239308515,Down
1,0.353249059,-0.6380047,1509,1250,0.705459659,1.937466888,-0.244131737,0.163926224,0.663419648,1.345201336,6.891776776,7.95773297,Non-gesture
1,-0.6380047,0.318790681,521,208,0.875107785,1.071250855,0.046907291,-0.051151336,0.907154118,1.225641027,7.648237761,7.414761577,Down
1,0.318790681,-0.620161247,1457,1198,0.771643622,0.918435343,-0.353628832,0.142724823,0.767512148,1.633456627,6.717993571,7.968544713,Non-gesture
1,-0.620161247,0.400846465,469,208,0.878453933,3.141858551,0.019793223,-0.022165678,1.325338303,1.561913731,7.422993478,7.820293016,Down
1,0.400846465,-0.603941988,1561,1354,0.687391533,2.002647398,-0.314194028,0.091520729,1.23392088,1.6506742,6.571012264,7.383444641,Non-gesture
1,-0.514997281,0.341424875,625,155,0.862526491,3.196775667,0.011913613,-0.006468706,1.275514225,0.861832943,7.44801237,4.582677048,Down
1,0.341424875,-0.37648233,1718,1459,0.721445048,1.713727626,-0.236759145,0.168827141,1.023606676,1.289273167,5.903731103,6.274673684,Non-gesture
1,-0.37648233,0.309613396,573,208,0.841326237,1.429337531,0.032747852,-0.006157303,1.315370219,0.922871464,7.427310388,4.600141924,Down
