Axis,Left Peak,Right Peak,Whole Duration,Peak Duration,Correlation Coefficient,Energy Ratio,Left Mean,Right Mean,Left Orientation (X),Right Orientation (X),Left Orientation (Y),Right Orientation (Y),Gesture Name,Class
0,0.838641883,-1.144324116,625,209,0.85257965,1.965555591,0.000659626,0.149334444,-0.419330496,-0.167101717,6.153191382,3.815982517,Right,Right
0,-1.144324116,0.697928179,1145,363,0.80805995,2.761236342,0.354600599,-0.198904138,0.12293843,-0.250014622,5.272342275,7.535224884,None,Non-gesture
0,1.084050809,-0.973218838,780,209,0.774085484,6.159347759,0.266335496,0.410814241,-0.104000565,0.432769872,6.504767021,8.033079891,Right,Right
0,-0.973218838,0.611228099,1300,415,0.822796947,4.947462977,0.428717871,-0.525060486,0.547497225,-0.235232252,5.448027347,7.570712097,None,Non-gesture
0,1.046170366,-1.052998205,781,208,0.830729629,7.38496636,0.183135241,0.398649903,0.269802242,0.430200994,6.900495155,8.102593239,Right,Right
0,-1.052998205,0.483629197,1249,468,0.808231669,6.09354302,0.436474608,-0.277739444,0.779283839,0.05049936,5.733040992,7.845530039,None,Non-gesture
0,0.894623248,-0.90310168,780,260,0.795398976,10.82919014,0.223348855,0.46649174,0.212517103,0.899586686,6.998017692,8.249927746,Right,Right
0,-0.90310168,0.664844377,1301,469,0.556329572,7.924926515,0.525333572,-0.637240989,0.860052646,0.203760123,6.595124782,7.49959389,None,Non-gesture
0,1.259012822,-0.956195968,834,208,0.459954292,5.733424078,0.200484379,0.333098738,0.576117677,0.782401453,7.089558547,8.231341805,None,Right
0,-0.956195968,0.968849462,1250,988,0.597636911,3.499530296,0.469104863,-0.49764252,1.157731568,0.123296237,5.672985502,7.898407788,None,Non-gesture
0,0.968849462,-0.885164889,780,260,0.463785074,9.370980018,0.068233516,0.177909469,0.488095836,0.249579867,7.131526139,7.41368366,Right,Right
0,-0.885164889,0.926654859,1250,937,0.507702092,6.852593856,0.643351335,-0.385770576,1.163492356,0.033094283,5.90865633,7.941649421,None,Non-gesture
0,0.926654859,-0.934549942,781,208,0.787363941,7.015729397,0.153240514,0.352582687,0.291761397,0.446616548,7.219970638,7.758199449,Right,Right
0,-0.934549942,0.570121526,1249,469,0.602227844,5.971559317,0.59397044,-0.330432069,0.957031868,0.306289545,6.02820495,7.737058507,None,Non-gesture
0,1.359918828,-1.036475205,730,209,0.620717514,5.451889185,0.225271489,0.267604904,0.48154249,0.863853177,7.188485463,8.198319509,Right,Right
0,-1.036475205,0.526674726,885,417,0.773205111,2.800924139,0.534748619,-0.033039401,1.106445791,0.708577421,5.744326049,8.160625708,Left,Non-gesture
0,1.202248854,-0.875826458,729,209,0.485834989,8.031020337,0.033608456,0.377074976,0.536727553,1.028055729,7.088706269,8.201030785,Right,Right
0,-0.875826458,0.444531844,1303,469,0.284627569,4.136522403,0.661680596,-0.348441481,1.253617158,0.597028705,5.785990526,7.461409566,None,Non-gesture
0,1.258802542,-0.913660294,730,209,0.405566368,3.680054288,0.066391991,0.162076819,0.588450577,1.07260594,7.124227946,8.146619098,None,Right
0,-0.913660294,0.520693021,989,468,0.814365329,1.776255652,0.623374998,0.009618534,1.421303755,1.10035484,6.338654361,8.470568679,None,Non-gesture
