Axis,Left Peak,Right Peak,Whole Duration,Peak Duration,Correlation Coefficient,Energy Ratio,Left Mean,Right Mean,Left Orientation (X),Right Orientation (X),Left Orientation (Y),Right Orientation (Y),Class
0,-0.661716060561,0.622749937353,520.0,208.0,-0.146248066823,79.5623903617,-0.0308762547724,-0.0165304721561,-0.724421076002,-0.465593778083,7.77536962736,4.82924607171,Left
0,0.622749937353,-0.768739280507,1405.0,1094.0,-0.0192489943827,107.385946635,-0.403150368541,0.0281729480289,-1.02914813377,-1.17876572213,6.47797601386,8.59045892154,Non-gesture
0,-0.768739280507,0.334413675901,417.0,208.0,0.321323534659,153.01993581,-0.0494340572633,-0.0894672808605,-0.878525486708,-1.33234638582,7.77576336382,8.68374171924,Left
0,0.334413675901,-0.888244338918,1666.0,1406.0,0.128130694785,41.4720021183,-0.420067989088,0.428800460873,-1.3155161178,-0.680576214368,7.25812071261,6.31286075831,Non-gesture
0,-0.888244338918,0.67799067589,520.0,209.0,-0.600009912954,19.3161257111,0.0078063385804,-0.0149117264295,-1.15156858632,-0.807727085087,7.72773606893,4.71093957618,Left
0,0.67799067589,-0.683009151371,1354.0,1145.0,-0.403697568351,12.7469958393,-0.446758065724,0.21389620501,-1.61727479376,-1.23550410822,7.17520643031,8.4564812696,Non-gesture
0,-0.683009151371,0.623800835386,729.0,156.0,-0.00627975827148,125.168789715,0.00457692034045,-0.0522769681845,-1.21363685543,-1.21692910964,7.64400507255,7.61596508674,Left
0,0.623800835386,-0.796956904453,1406.0,1198.0,-0.395209271665,46.3053736548,-0.262468592829,0.192127353682,-1.36124553952,-1.29677279444,6.35712950504,8.39175171892,Non-gesture
0,-0.796956904453,0.626169481081,522.0,157.0,-0.745034785911,27.5132755102,-0.0150161384165,-0.104606864424,-1.24786146888,-1.47145895563,7.64927239742,8.12085014414,Left
0,0.626169481081,-0.791073045342,1354.0,1146.0,-0.273840791315,22.809393356,-0.312425427308,0.0564637424702,-1.43636710655,-1.70581346521,6.33533005164,8.55583051831,Non-gesture
0,-0.791073045342,0.343489792252,469.0,155.0,0.611521317361,76.7549697527,0.0211165926519,-0.0404629836302,-1.35187218863,-1.80135014972,7.62702958162,8.55005764808,Left
0,0.343489792252,-0.576635033927,1562.0,1355.0,0.527997540814,30.1075193374,-0.319510013471,0.1586299012,-1.55499438961,-1.57345990833,6.31460876327,7.95881054352,Non-gesture
0,-0.576635033927,0.353383083746,574.0,156.0,0.663512287232,44.8017687301,0.0115178117496,0.000482157487984,-1.54705191775,-1.56554764517,7.65121749416,7.14133395329,Left
0,0.353383083746,-0.661317869803,1406.0,1146.0,0.256896159425,22.7856388093,-0.244455057011,0.0792023234919,-1.60446344199,-1.88531886501,6.32240942478,8.46968459168,Non-gesture
0,-0.661317869803,0.403750105506,469.0,156.0,-0.0570364770273,27.0620188771,-0.0379833923568,-0.0361331497731,-1.64130217546,-1.9547991419,7.69356404235,8.35176873178,Left
0,0.403750105506,-0.76714215958,1458.0,1198.0,0.203844586213,25.85660884,-0.330658934902,0.107096094818,-1.36283345583,-1.97689487498,4.77402725202,8.4550624698,Non-gesture
0,-0.76714215958,0.467580065781,469.0,156.0,-0.37735518798,32.3324237627,-0.0222530505926,-0.0145057761387,-1.74724520953,-2.00786194958,7.69353803812,8.16896570284,Left
0,0.467580065781,-0.578561537978,1406.0,1198.0,-0.132938059101,21.7680435664,-0.421885632904,0.111326998787,-1.91968543434,-1.96587624476,6.37056288206,8.42997948784,Non-gesture
0,-0.578561537978,0.439473551563,522.0,157.0,-0.598458912893,30.6640795943,0.0073560136786,-0.0538180998932,-1.76682344922,-2.02742762806,7.66720975101,8.12412601652,Left
0,0.663794140135,-0.560578992625,781.0,208.0,0.674927648536,27.3066506166,0.0190944857489,0.054267795806,-1.72967785717,-0.946855952125,7.64700899625,4.78604812677,Right
0,-0.560578992625,0.318385599582,885.0,417.0,0.740269834427,17.7187430232,0.298783554949,0.0281838482841,-1.01996502318,-1.63620959362,6.39152664394,9.11820720941,Non-gesture
0,0.596910127218,-0.56199719871,521.0,155.0,0.913877720593,13.3766732834,-0.0071386717807,0.0736721814771,-1.46113620966,-1.51405317199,7.70271840165,9.10695291721,Right
0,0.578684280025,-0.853034999511,625.0,156.0,0.964741906382,12.5750565697,0.0186756031016,0.0144372109539,-1.23541214829,-0.796532610299,7.75228586164,4.78365112528,Right
0,-0.853034999511,0.641299058412,1407.0,1198.0,0.909212509887,11.9103415054,0.27324172628,-0.226585237438,-0.691196941298,-1.59364462332,6.49212719707,8.44002116644,Non-gesture
0,0.641299058412,-0.732727985076,521.0,157.0,0.942364497454,12.6785409004,0.00761577589946,0.0815498483677,-1.27075729579,-1.33172877806,7.69988211405,8.20044867304,Right
0,-0.732727985076,0.603426187977,1302.0,1094.0,0.88808122104,10.8535471803,0.346604832284,-0.162790535116,-0.663669807091,-1.38340679577,6.46837048655,8.68646286394,Non-gesture
0,0.603426187977,-0.424398090232,731.0,207.0,0.778614840851,12.289923268,0.0371075506099,0.0804100949149,-1.19233532157,-1.18006811666,7.68482842226,8.2536226809,Right
0,-0.424398090232,0.565282461142,1406.0,1146.0,0.742977220981,10.1980916547,0.301930459237,-0.23644854613,-0.603283836995,-1.40121247897,6.45279656767,8.50079667735,Non-gesture
0,0.565282461142,-0.631690095996,677.0,157.0,0.885870808808,10.7398996507,0.0481545222729,0.0184692619927,-1.06993793206,-1.13621196924,7.75397335342,7.24316863768,Right
0,-0.631690095996,0.608460641089,1303.0,1094.0,0.830592614581,9.68357861909,0.305307902642,-0.261966808664,-0.564501081814,-1.73769402628,6.50212820569,8.69333371505,Non-gesture
0,0.608460641089,-0.761350229399,781.0,208.0,0.962238516279,12.5200946422,-0.0623852425574,0.0426701095348,-1.31041118011,-1.4018280675,7.7329437236,7.20366073414,Right
0,-0.761350229399,0.615728918429,1355.0,1042.0,0.947021958719,10.684378696,0.342693239982,-0.258841345317,-0.689401859614,-1.87152096498,6.53457636814,8.53679361433,Non-gesture
0,0.615728918429,-0.809140763239,574.0,208.0,0.971894140481,9.62272936694,0.0292830553862,0.0770908660193,-1.43947018007,-1.6526649146,7.70072582405,8.52292602566,Right
0,-0.809140763239,0.689622183692,1458.0,1250.0,0.87355863349,8.92993310069,0.309135365591,-0.350697928947,-0.967411900603,-1.85929227239,7.28432200511,8.06351655801,Non-gesture
0,0.689622183692,-0.866359284284,573.0,157.0,0.930598940034,8.08783756831,-0.00221468059859,0.0753966306894,-1.49615955665,-1.4908509812,7.72239708092,7.91819744761,Right
0,-0.866359284284,0.938108197216,1511.0,1302.0,0.829950844351,8.87283055911,0.332460339236,-0.443625262081,-0.826728526453,-1.7284346082,6.48349884449,8.07381452928,Non-gesture
0,0.938108197216,-0.843333287071,782.0,156.0,0.849843107187,14.6630668273,0.0423415580392,0.0137145615529,-1.33771936784,-0.907070222922,7.70064539387,4.77042076072,Right
0,-0.843333287071,0.328732023435,1772.0,1459.0,-0.0717875677227,0.668577257458,0.467980483867,-0.00922171036754,-0.550558759956,-0.79264184552,6.45828296077,4.78487813715,Non-gesture
1,0.8006168892,-0.991830356997,677.0,209.0,-0.917327010316,13.9162715602,-0.0169803264954,0.016857939572,-1.23847731436,-0.772467908689,7.67316113915,4.79248268777,Up
0,0.328732023435,-0.352480152249,1250.0,1041.0,-0.92312314002,0.122626362189,-0.060084333611,0.0517537123858,-1.36730032427,-0.785114347828,8.15466554956,4.60575089451,Non-gesture
1,-0.991830356997,0.78380895429,1251.0,989.0,-0.914792898929,7.85688109407,0.41454059659,-0.192706884979,-1.13789534793,-1.43557412285,6.9215120563,8.64844364498,Non-gesture
1,0.78380895429,-0.853759232956,625.0,208.0,-0.925387091955,6.83363174417,0.0244727992814,0.154199792964,-1.25027365556,-1.43958669406,7.70513694255,8.59518032443,Up
1,-0.853759232956,0.724291437202,1406.0,1095.0,-0.911099521747,6.55216454974,0.444457156582,-0.214718310705,-1.27741717305,-1.36574640664,6.91863407779,8.48479179916,Non-gesture
1,0.724291437202,-0.642264544424,574.0,208.0,-0.959127286201,5.70602729854,-0.0140422814568,0.0779274751243,-1.26947834739,-1.35123233673,7.72855648207,8.35951525596,Up
1,-0.642264544424,0.599460728667,1251.0,1042.0,-0.946344584286,5.52275444526,0.345852275758,-0.213248457825,-1.39798431514,-1.27673934563,7.68335378834,8.62452699681,Non-gesture
1,0.599460728667,-0.833321431355,521.0,208.0,-0.938048137712,5.93467396954,-0.0258344914114,0.098692215588,-1.22015013855,-1.24545963931,7.77209162282,8.60165588539,Up
1,-0.833321431355,0.839649506381,1303.0,989.0,-0.893542410265,9.87397736329,0.313321142388,-0.163390100123,-1.19051940319,-1.08936002622,6.85553140963,8.69082586395,Non-gesture
1,0.839649506381,-0.853873055985,521.0,209.0,-0.789017049806,11.2510644257,-0.0398304287782,0.0997395935581,-1.07396422208,-1.07361780664,7.6955862655,8.89772031659,Up
0,-0.379151453041,0.367249275519,572.0,209.0,-0.972174612922,0.223881535439,-0.00791500924935,-0.0212418757227,-0.963563175123,-0.650745770004,7.79124695601,4.84798831371,Non-gesture
1,-0.853873055985,0.733073666668,1250.0,1041.0,-0.63626931494,4.80683927654,0.407799570616,-0.230672184649,-1.14435979058,-1.08132890986,7.74482875947,8.65063348141,Non-gesture
1,0.733073666668,-0.796423330836,625.0,209.0,-0.972040528075,4.42823879104,-0.0354396367933,0.0992185187641,-0.963563175123,-1.09872581917,7.79124695601,8.30241163473,Up
1,-0.796423330836,0.647612799802,1250.0,937.0,-0.959621033139,5.67945248997,0.387603489615,-0.121859082014,-1.04077061492,-1.17347306827,6.95105628772,8.80014504754,Non-gesture
1,0.647612799802,-0.796623653162,469.0,209.0,-0.952869246537,6.95693864525,0.00978737151909,0.0874697016582,-1.05609145724,-1.25408169448,7.76475240656,8.97244360731,Up
1,-0.796623653162,0.669431389734,1302.0,1094.0,-0.924126869741,6.46292597453,0.332407106662,-0.180584161618,-1.13848151473,-1.26546874416,7.68258383531,8.62636707093,Non-gesture
1,0.669431389734,-0.752562443969,520.0,157.0,-0.958896360778,8.75107242146,-0.0521741673642,0.105918922294,-1.10589990863,-1.28074780072,7.76497896116,8.71785874674,Up
1,-0.752562443969,0.631492216283,1250.0,1041.0,-0.89092581139,9.91678676883,0.305846716224,-0.190292844914,-1.08689973544,-1.19273738584,6.86837515986,8.74138334959,Non-gesture
1,0.631492216283,-0.847729745385,522.0,208.0,-0.824879148795,11.9715715543,-0.0119979594342,0.110052786969,-1.0886302868,-1.1567944011,7.82169288106,8.64382464205,Up
1,-0.847729745385,0.655121555023,1250.0,990.0,-0.828433726323,11.5142558295,0.372788052726,-0.151571531904,-1.04919345323,-1.1582608033,6.93722152995,8.78149570597,Non-gesture
1,0.655121555023,-0.806562887089,574.0,208.0,-0.950340858964,10.9751934485,-6.78282867286e-05,0.0945980035474,-1.02322429335,-1.2062919898,7.77794115085,8.78071212642,Up
1,-0.730209629505,0.501922917841,469.0,156.0,-0.866754655628,5.88154543524,0.0111710853194,-0.0309851349981,-1.15393888693,-0.721815352682,7.82677216514,4.80882809042,Down
1,0.501922917841,-0.600827483355,990.0,781.0,-0.842559277529,5.33956217136,-0.330244545134,0.0347815871918,-0.853996967577,-1.36526451644,6.12979189469,8.96379874367,Non-gesture
1,-0.600827483355,0.403769094089,416.0,105.0,-0.802398181397,6.93017866471,-0.0125012103091,0.000303946677513,-1.19016807931,-1.32393907822,7.73414646521,8.92620783819,Down
1,0.403769094089,-0.575548044423,1667.0,1458.0,-0.860055259884,5.06690533185,-0.300413741677,0.290604308394,-0.623844084498,-1.32750408584,4.47949780992,7.92592178116,Non-gesture
1,-0.575548044423,0.548173348803,468.0,157.0,-0.912780006919,2.37588477243,0.0467820929893,-0.0544773767048,-1.09870386676,-1.02374286885,7.71662030601,6.3513432297,Down
1,0.548173348803,-0.624682063642,990.0,729.0,-0.653056877343,3.27080907948,-0.251613629008,0.00987770424076,-0.803033356906,-1.46634605573,6.11708563323,8.95197659335,Non-gesture
1,-0.624682063642,0.46678192518,417.0,208.0,-0.623392229139,7.46100698164,-0.0312948999186,-0.100916245469,-1.1561017792,-1.43700871198,7.68531027287,8.82244464123,Down
1,0.46678192518,-0.790013030944,989.0,781.0,-0.485148638723,9.15898642591,-0.296582381729,0.0201930951118,-1.10283205321,-1.48450079926,6.84129129374,8.77076322796,Non-gesture
1,-0.790013030944,0.363763344157,416.0,157.0,-0.516066375003,11.7372044919,0.0337732512261,-0.0631969197901,-1.19679100065,-1.45570879534,7.62502993564,8.65032791916,Down
1,0.363763344157,-0.705201718733,938.0,729.0,-0.758958169225,6.51107304905,-0.33867485633,0.058722273893,-0.994596401879,-1.5608774691,5.93048365174,8.76936306388,Non-gesture
1,-0.705201718733,0.543356295761,417.0,156.0,-0.875502252634,2.80998415977,0.0208016017653,-0.0840926749363,-1.2373449717,-1.47166299592,7.49418835248,8.59592668037,Down
1,0.543356295761,-0.6573708392,1094.0,834.0,-0.744214740233,2.32598076299,-0.360489941642,0.0770906632589,-0.945284106512,-1.58009737634,5.79705421777,8.66076893834,Non-gesture
1,-0.6573708392,0.472838684347,417.0,156.0,-0.847892516178,2.09002853029,0.0836625385951,-0.0582947132164,-1.23039926579,-1.48854136531,7.45103839227,8.52975491604,Down
1,0.472838684347,-0.573452251645,1041.0,781.0,-0.7563795333,2.47516419019,-0.3286854196,0.0381348211977,-0.702234096376,-1.52620788668,4.29541207621,8.83090691036,Non-gesture
1,-0.573452251645,0.634985685729,469.0,157.0,-0.899023875146,3.97002304011,0.0642854966954,-0.0257664006381,-1.26057727402,-1.45825633617,7.44475460522,8.71302502041,Down
1,0.634985685729,-0.634977874704,938.0,729.0,-0.903725970325,3.40421441435,-0.232667083907,0.0372882646337,-0.95859911099,-1.53391605432,5.89112254071,8.85344380429,Non-gesture
1,-0.634977874704,0.536569121093,416.0,156.0,-0.898809664998,3.36429359521,0.000257229084551,-0.107227527,-1.23576807102,-1.4628030728,7.54752185942,8.66655625109,Down
1,0.536569121093,-0.701721835998,1041.0,834.0,-0.797403309197,4.21230509063,-0.256068223895,0.0752556046196,-0.907318624957,-1.63011568306,5.95131294349,8.79107796793,Non-gesture
1,-0.701721835998,0.503537242487,469.0,155.0,-0.909951799562,1.92921313123,0.0646464441883,0.00385785354856,-1.24179410645,-1.53738090161,7.49852733075,8.65975733736,Down
