Axis,Left Peak,Right Peak,Whole Duration,Peak Duration,Correlation Coefficient,Energy Ratio,Left Mean,Right Mean,Left Orientation (X),Right Orientation (X),Left Orientation (Y),Right Orientation (Y),Class
0,-0.474145528,1.040842188,676,260,-0.593995084,15.19629591,-0.020939252,-0.007724035,-1.624508966,-1.003941764,4.353703828,3.419622549,Left
0,1.040842188,-0.436596088,1301,468,-0.597282452,15.0338593,-0.244240609,0.489612249,-1.938998992,-1.746008298,4.71331653,7.290011012,Non-gesture
0,-0.623070726,0.94911828,676,312,-0.299897525,55.1927902,-0.128728489,-0.243717553,-2.013961599,-2.401744628,6.260396321,7.885932006,Left
0,0.94911828,-0.469706647,1456,417,-0.165325095,29.9407663,-0.320562069,0.628287672,-2.257703912,-1.792056325,5.960374643,7.295677201,Non-gesture
0,-0.813692361,0.978133521,728,260,-0.019287918,29.80414517,-0.084873212,-0.229200803,-2.131570716,-2.505434932,6.85575028,7.971735326,Left
0,0.978133521,-0.394065033,1613,468,-0.391090774,21.31477881,-0.411527184,0.657288705,-2.283491243,-1.770866578,5.632051676,7.003025846,Non-gesture
0,-0.537895007,1.07161624,623,260,-0.106211941,51.78830711,-0.099285923,-0.19974563,-2.359643138,-2.567199081,7.06986121,8.043237301,Left
0,1.07161624,-0.537924551,1560,1249,-0.345299288,21.17381391,-0.310249881,0.518796275,-2.557996246,-1.950737414,6.549820966,7.038687586,Non-gesture
0,-0.537924551,1.025430947,728,313,-0.588936851,30.93192604,-0.050480061,-0.083788203,-2.351165146,-1.301678474,7.190278395,4.375776827,Left
0,1.025430947,-0.403278626,1249,468,-0.559239118,26.39499213,-0.334890073,0.486499246,-2.586710494,-2.060690018,6.66715909,7.958297413,Non-gesture
0,-0.717603733,1.082449123,728,260,-0.124570906,63.4791614,-0.181482253,-0.144937853,-2.304827638,-2.452467987,7.099049318,8.420950768,Left
0,1.082449123,-0.342079846,1769,468,-0.278571446,22.48031841,-0.393680535,0.255949246,-2.356867402,-1.203449089,5.824288476,4.463943267,Non-gesture
0,-0.678206839,0.955861225,573,260,-0.105177744,25.80492436,-0.0677825,-0.181544444,-2.197928877,-2.420515199,7.280481626,8.003417394,Left
0,0.955861225,-0.324863287,1615,417,-0.408354408,17.45680063,-0.313408979,0.407590869,-2.428211775,-1.942574578,6.707365112,6.703745913,Non-gesture
0,-0.570317697,0.93271596,625,207,-0.022082162,41.70062367,-0.090677778,-0.108099011,-2.38912819,-2.523169111,7.253463628,8.028621386,Left
0,0.93271596,-0.531223747,1562,1251,-0.180797732,18.74943322,-0.329745268,0.584950813,-2.357789931,-1.902751333,5.956221444,7.478625701,Non-gesture
0,-0.531223747,0.896946091,729,260,0.082186462,60.62870204,-0.073518901,-0.049922502,-2.339419558,-1.267909522,7.275031101,4.48794407,Left
0,0.896946091,-0.447117225,1458,1198,-0.364829029,26.48884767,-0.31214011,0.53355144,-2.541220621,-1.680309573,6.713473519,7.784074594,Non-gesture
0,-0.447117225,0.915241288,729,208,-0.276610915,56.50265887,-0.010669402,-0.120934808,-2.037162219,-1.867190865,7.322876003,7.212418733,Left
0,0.915241288,-0.317303539,1302,469,-0.42335593,46.47833992,-0.207512964,-0.29465379,-1.970984021,-2.605593012,6.064157471,8.089438451,Non-gesture
0,-0.317303539,0.407693233,1197,781,0.034662622,7.445126269,0.417963805,-0.542663109,-1.539715338,-3.032617941,7.241085438,7.766920271,Non-gesture
0,0.407693233,-1.188534266,730,312,0.901211095,5.219843658,-0.069872255,0.208468288,-2.080703147,-2.71932279,7.306558859,7.945444698,Right
0,-1.188534266,0.344030153,1353,469,0.925180321,5.397107422,0.204244577,-0.543383271,-1.667984504,-3.074854732,6.798479235,7.600592187,Non-gesture
0,0.556188109,-0.986546655,834,313,0.93547821,9.339548196,0.156898514,0.200308787,-2.323322784,-2.732993492,7.045824162,8.175941868,Right
0,-0.986546655,0.410964864,1771,416,0.876104226,8.355883043,0.1870709,-0.024236491,-1.619030012,-1.310444917,5.884422144,4.393530228,Non-gesture
0,0.527222814,-1.066411501,677,261,0.951299767,9.653277513,0.07386461,0.237961146,-2.169708936,-2.594199209,7.120691819,7.400728916,Right
0,-1.066411501,0.3907095,1458,468,0.894389829,8.669165836,0.290512213,-0.703162247,-1.479487575,-3.18780537,5.937533415,7.379196755,Non-gesture
0,0.640882602,-1.179993323,677,364,0.962178706,7.431142113,0.082298,0.241584426,-2.27292424,-2.840264475,7.072391649,7.970067312,Right
0,-1.179993323,0.442324315,1720,417,0.873888674,6.59068883,0.319265739,-0.1844647,-1.764509232,-1.497747524,6.634848193,4.271803343,Non-gesture
0,0.670361126,-1.136904172,626,260,0.931114103,6.166478831,0.093427412,0.281393194,-2.258852952,-2.604560379,7.056314089,7.651379703,Right
0,-1.136904172,0.476997691,1511,469,0.88162642,5.43859911,0.408711501,-0.771838521,-1.663821081,-2.833868064,6.607905428,6.971685335,Non-gesture
0,0.634634295,-1.279959895,677,312,0.959178279,7.168751308,0.133699193,0.282251647,-2.086213343,-2.492441406,7.01054804,7.862345466,Right
0,-1.279959895,0.540764975,1613,417,0.883997437,6.613382872,0.335974318,-0.58466619,-1.545024372,-2.258883087,6.597672393,6.378249762,Non-gesture
0,0.65423961,-1.172581754,729,208,0.886868747,8.052825784,0.10121155,0.233836585,-1.98409156,-2.246296152,6.997899716,7.75690421,Right
0,-1.172581754,0.417371422,1458,469,0.753490076,6.689635543,0.344944364,-0.69690506,-1.203198601,-2.723264226,5.85044227,7.177233403,Non-gesture
0,0.797870859,-1.29655233,781,260,0.874610456,6.356458337,0.063997122,0.134904448,-1.894611693,-2.439778238,6.965392156,7.749223488,Right
0,-1.29655233,0.363795666,1094,365,0.866165293,4.839353136,0.344463017,0.020385253,-1.110371163,-2.375203072,5.737372178,7.987273241,Non-gesture
0,0.680349167,-1.296075655,677,261,0.912795203,7.683887028,0.027158054,0.257522321,-2.080904575,-2.504997578,6.909356363,7.267148462,Right
1,0.500015891,-0.537406724,574,312,-0.896951414,2.947961925,0.082800392,0.034994113,-2.131807155,-1.146151712,6.937826747,4.424120565,Up
1,-0.537406724,0.503870351,1772,1458,-0.685959879,3.597575966,0.154767649,-0.171364615,-1.76449504,-1.2035751,6.023908629,4.492832498,Non-gesture
1,0.503870351,-0.675965028,625,260,-0.870456546,4.108335305,0.028401428,0.018546199,-1.921799114,-1.102248935,7.300981369,4.601919979,Up
1,-0.675965028,0.539837922,1458,1147,-0.834310107,3.394262251,0.222584458,-0.366402607,-1.868413993,-1.965235259,7.162112121,7.661078455,Non-gesture
1,0.539837922,-0.756161438,624,260,-0.889397457,5.501203798,-0.010074028,0.118446026,-1.936909434,-1.871271625,7.398095131,7.762306151,Up
0,0.32734996,-0.309953883,1458,1145,-0.75587137,0.228251328,-0.114804022,0.069756241,-2.075171326,-1.131538454,7.709221336,4.566787395,Non-gesture
1,-0.756161438,0.491267694,1459,1198,-0.750904059,4.167995158,0.309840262,-0.326884032,-1.9634621,-1.827061423,7.321149954,7.753736291,Non-gesture
1,0.491267694,-0.58546323,677,261,-0.854272795,2.018249368,-0.009739363,0.112675049,-1.852632629,-1.637414646,7.438188387,7.491544418,Up
0,-0.309953883,0.409708171,781,313,-0.836610204,0.484560599,-0.044848558,-0.010995384,-1.859694739,-1.391049755,7.443972849,6.240367234,Non-gesture
1,-0.58546323,0.325722127,1562,1198,-0.795945153,2.199195341,0.282507175,-0.344486362,-1.722011171,-1.532601666,6.543486216,7.538939954,Non-gesture
1,0.325722127,-0.540413114,730,312,-0.948956748,1.877569201,-0.000111098,0.104730038,-1.683548366,-1.437391246,7.499940485,7.021770646,Up
1,-0.565414738,0.414732218,1615,1249,-0.906056896,2.139680347,0.228761035,-0.061883001,-1.77768243,-1.049184305,7.762028026,4.721618575,Non-gesture
1,0.414732218,-0.605935312,625,261,-0.977646568,3.455920434,-0.000227618,0.058642587,-1.713630661,-1.545018803,7.518263559,7.076222819,Up
1,-0.605935312,0.404611894,1459,1146,-0.9618627,2.433004116,0.249011829,-0.356027328,-1.702685626,-1.656277907,7.364598646,7.791820794,Non-gesture
1,0.404611894,-0.662325008,729,312,-0.923011911,2.051844206,-0.002160382,0.099074329,-1.752671291,-1.562372509,7.531368191,7.513624815,Up
1,-0.662325008,0.548394862,1460,1094,-0.867814722,2.791222397,0.223633213,-0.343640398,-1.811021964,-1.447719623,7.351491425,7.818087149,Non-gesture
1,0.548394862,-0.595853652,678,260,-0.918228022,2.300959244,0.019448531,0.085110491,-1.614884836,-1.649274085,7.535615388,7.823851238,Up
0,0.485848874,-0.306595306,1354,990,-0.898597783,0.657488469,-0.094350453,0.036462916,-1.717835451,-1.049612647,7.88042298,4.723120436,Non-gesture
1,-0.595853652,0.516951048,1354,1042,-0.898597783,1.520939222,0.271926395,-0.299180959,-1.618201275,-1.63245358,7.408481774,8.109359503,Non-gesture
1,0.516951048,-0.575799279,677,313,-0.958780255,2.240122901,0.008674811,0.118732389,-1.700604745,-1.707971208,7.507682005,7.780956093,Up
0,-0.306595306,0.40210977,677,365,-0.958780255,0.446404079,-0.07622248,-0.146046228,-1.700604745,-1.76300064,7.507682005,7.999339556,Non-gesture
1,-0.575799279,0.465891298,1459,1093,-0.900791403,1.854859423,0.302702379,-0.352822646,-1.715287316,-1.721710749,7.394025492,7.709970631,Non-gesture
1,0.465891298,-0.588688763,678,260,-0.750668277,2.811308621,-0.001099023,0.150412556,-1.716703247,-1.641923816,7.455466246,7.788253566,Up
0,0.371245367,-0.637671436,1822,1458,-0.684730092,1.525399617,0.158248223,0.06837593,-0.953649707,-1.195494168,4.404670888,4.577701672,Non-gesture
1,-0.362371715,0.445541435,626,312,-0.900178624,0.402876049,0.000265738,-0.098798049,-1.592827019,-1.838570758,7.459220556,6.865640804,Down
0,-0.637671436,0.421830437,1145,938,-0.713393238,1.970500758,-0.153917607,-0.15981885,-1.706175211,-1.301324674,7.258922692,4.401060055,Non-gesture
0,0.421830437,-0.475102686,676,156,-0.500177619,2.055849211,0.022569465,0.091583642,-1.913790596,-2.215530701,7.474808385,7.86787893,Non-gesture
1,-0.625279425,0.480068492,469,155,-0.900994397,0.323921813,0.113773734,-0.050110095,-2.151524225,-2.429025019,7.442893209,6.03019126,Down
0,-1.076353333,0.430944605,1354,1093,-0.635903244,3.620906879,0.134153121,-0.153673953,-1.964747511,-1.667847628,7.010485455,4.50607758,Non-gesture
1,0.480068492,-0.477257529,1406,1146,-0.665315507,0.256431887,-0.301717286,0.028813559,-1.619826514,-3.495739598,5.795538311,8.063925277,Non-gesture
1,-0.477257529,0.406739936,521,209,-0.904675327,0.221720741,0.100648705,-0.166939487,-2.520435677,-3.199335831,7.399774764,7.73429155,Down
0,0.430944605,-1.004809281,676,209,-0.895698643,3.93513679,0.039810201,0.2285461,-2.520435677,-2.925221716,7.399774764,7.379218082,Non-gesture
1,-0.359953915,0.451537194,520,209,-0.916159823,0.478218668,0.089960466,-0.085965331,-2.599303042,-3.030118818,7.262947393,7.966532343,Down
0,0.337302389,-0.64249115,574,209,-0.945515427,1.955684094,0.157966106,0.144841377,-2.556450598,-3.067792366,7.222704027,8.516486131,Non-gesture
1,-0.387902481,0.366368171,521,260,-0.891460846,0.311916748,0.088144742,-0.154767866,-2.547292557,-3.085539334,7.353275659,7.874261854,Down
0,0.430408344,-0.756659126,573,208,-0.892115976,2.598712923,0.125019944,0.174315353,-2.481514941,-2.784076412,7.27544186,7.370337436,Non-gesture
1,0.366368171,-0.312483814,677,209,-0.709452242,0.287607123,-0.250441661,0.065228606,-2.130184959,-3.100603272,6.570502432,8.683770214,Non-gesture
0,0.383516264,-0.681542937,677,208,-0.860965909,2.388600334,0.130407981,0.236632852,-2.483079309,-2.707060893,7.330168983,7.744987551,Non-gesture
0,-0.681542937,0.328101737,1407,521,-0.705765628,2.493429819,0.221044122,-0.506918641,-1.835479406,-3.254490589,5.825246379,8.120823671,Non-gesture
0,0.318071125,-0.911497775,626,262,-0.7826754,5.539378511,0.110125004,0.193416238,-2.339013403,-3.032485819,7.348596482,8.390965946,Non-gesture
0,-0.911497775,0.306002627,1823,468,-0.261394712,3.050431323,-0.235103856,-0.261975807,-1.683782338,-1.649295305,4.61908204,4.62956816,Non-gesture
1,-0.460987139,0.35060766,521,157,-0.820034247,0.223841295,0.065100069,-0.154337593,-2.300208277,-2.846175851,7.442024577,7.115028286,Down
0,0.342146859,-0.974183167,677,261,-0.852276165,3.934395416,0.102475992,0.131262734,-2.283945396,-2.688671375,7.430006019,7.160521563,Non-gesture
1,0.361074063,-0.322596001,729,313,-0.620629822,0.150504163,-0.197306371,0.022811745,-2.388684679,-1.876238081,7.059254049,4.455850704,Non-gesture
0,-1.035114121,0.344370926,1720,469,0.070547665,4.631686187,0.126846805,-0.167258961,-2.406893989,-1.813148158,6.494892025,4.36090032,Non-gesture
0,0.379787116,-1.09332926,678,313,-0.730602727,6.160551226,0.153625914,0.354078739,-2.698221681,-3.240096695,7.223224113,7.500011866,Non-gesture
0,-1.09332926,0.512241502,1405,416,-0.001486701,4.496006883,0.208994006,-0.237283709,-2.323225238,-2.940931969,6.441639104,8.272900504,Non-gesture
1,-0.350640335,0.747845172,1510,989,-0.19405578,0.537655699,0.101896412,-0.076362782,-3.522583073,-1.554217188,7.174132069,4.54450349,Non-gesture
0,0.452443286,-0.478989082,625,260,-0.867451828,0.671119517,0.315514196,0.263347652,-2.478488946,-2.527836136,7.144863441,8.683281812,Non-gesture
1,0.747845172,-0.484110045,1615,1302,-0.743113428,1.0567207,-0.125322922,0.159067481,-2.299742276,-1.353851263,6.934489908,4.81332552,Non-gesture
0,-0.478989082,0.47861242,1563,469,-0.737222571,0.91458922,0.23990331,-0.446478371,-2.136704598,-2.358906402,6.558530352,7.727526934,Non-gesture
1,-0.484110045,0.434672894,573,208,-0.839764535,0.522502198,0.092036564,-0.063674408,-1.947843277,-2.042059193,7.600685887,6.966124031,Down
0,0.311855462,-0.66274958,781,364,-0.75436936,1.854338497,0.10823088,0.174738809,-2.021815483,-2.278620543,7.577942661,8.602979027,Non-gesture
1,0.434672894,-0.448734197,1510,1303,-0.61118315,0.431156838,-0.248071524,0.19800778,-1.675611789,-2.643067763,6.783752757,7.968000673,Non-gesture
1,-0.448734197,0.383396755,572,209,-0.839616004,0.19349677,0.038640427,-0.101981636,-1.768923674,-2.432801875,7.586995765,7.368295751,Down
0,-1.092157803,0.402108862,1666,520,-0.460669124,5.148462936,0.19930255,-0.200158918,-1.605079513,-1.281579438,7.315417643,4.590505932,Non-gesture
0,0.317820072,-1.188843457,937,260,-0.52892882,6.778436648,0.175498933,0.20513945,-1.887911089,-2.595831959,7.526174268,8.161806541,Non-gesture
0,-1.188843457,0.312626235,1563,521,-0.273198302,4.361445271,0.128910385,-0.519454653,-1.539275864,-2.61273987,6.76623914,7.414569947,Non-gesture
1,-0.499106043,0.386863825,573,209,-0.843771486,0.211734608,0.112481313,-0.072992243,-2.141578732,-3.094524486,7.453775124,8.062720635,Down
