Axis,Left Peak,Right Peak,Whole Duration,Peak Duration,Correlation Coefficient,Energy Ratio,Left Mean,Right Mean,Left Orientation (X),Right Orientation (X),Left Orientation (Y),Right Orientation (Y),Gesture Name,Class
0,-1.094264098,1.317576763,886,156,-0.44494956,4.870548582,0.033364446,-0.094602257,-1.873630594,-0.820060892,7.583247763,4.443390568,Left,Left
0,1.317576763,-0.37228204,1353,626,-0.357158994,2.678501773,-0.459025497,0.728526354,-2.184598602,-1.357323092,5.987181369,6.887029422,None,Non-gesture
0,-1.329893187,1.2245307,781,209,-0.454982016,1.688812214,-0.315046186,-0.239879458,-1.740574498,-2.012286961,7.239249018,7.832210655,Left,Left
1,-1.195526189,0.380516407,1771,625,-0.498983997,0.557522368,0.064834739,-0.001631063,-1.683761712,-1.846989696,6.047579607,4.323861021,None,Non-gesture
0,1.2245307,-0.462064058,1719,572,-0.670397504,1.388141371,-0.675177736,0.403634263,-2.458523353,-0.976569881,6.170150762,4.01482986,None,Non-gesture
1,0.380516407,-0.633002627,1667,990,-0.540617144,0.365368774,-0.378410812,0.010914613,-1.170509322,-1.086885391,6.11581557,4.113957157,None,Non-gesture
0,-1.258955996,0.959118285,677,208,-0.461753493,4.370989494,-0.166275854,-0.217798373,-1.969019429,-2.174051047,6.984115077,7.518795573,Left,Left
0,0.959118285,-0.346431757,1562,521,-0.219393647,2.427839183,-0.565462276,0.520274033,-2.497684939,-1.937100712,6.249399737,6.262101901,None,Non-gesture
0,-1.39009515,0.787682184,781,156,-0.098662269,2.707171492,-0.046665997,-0.163655695,-2.062191818,-2.492972167,7.011345398,7.550415177,Left,Left
0,0.76357385,-0.310761621,938,416,-0.916766315,1.681841272,0.393841092,0.152081625,-1.151937983,-2.579642881,3.885718781,7.805323888,None,Non-gesture
0,-1.367418682,1.03049919,834,156,-0.200920446,2.707104103,0.033131724,-0.219758285,-2.18055794,-2.112584824,6.975194001,7.250393447,Left,Left
0,1.045055709,-0.320621295,989,469,-0.900478004,2.673526011,0.515249595,0.118283867,-1.056679468,-2.342065705,3.824107366,7.634656425,None,Non-gesture
0,-1.292307115,1.085448457,885,209,-0.410713079,1.680792046,0.000150065,-0.201596596,-1.938857234,-1.953671024,6.90073604,7.225067183,Left,Left
0,1.085448457,-0.32372854,1146,520,-0.624159225,1.009002175,-0.627581553,-0.013042025,-2.438718941,-2.065373053,5.336525723,8.096915031,None,Non-gesture
0,-1.451754749,0.996807735,781,312,-0.075035241,1.776511045,-0.178929655,-0.077913811,-2.164872166,-1.254269437,7.445374318,4.118333555,None,Left
0,0.996807735,-0.303707037,1041,417,-0.690828522,1.064565106,-0.682238258,-0.229483253,-2.895882879,-2.734556556,6.211586151,7.991113228,None,Non-gesture
0,-1.489151803,1.032483403,781,261,-0.252809575,2.15383716,-0.032529816,-0.300276673,-2.107450698,-2.182793054,7.059496306,6.986945693,Left,Left
1,-1.100634807,0.301141169,1666,626,-0.380956258,0.510663314,-0.008330346,-0.061364207,-2.528597286,-1.724875776,6.992245896,4.248128562,None,Non-gesture
0,1.032483403,-0.433950055,1668,469,-0.173402474,1.292610019,-0.057980828,0.389239446,-2.453532922,-1.221741916,6.224183414,3.433055799,None,Non-gesture
1,0.301141169,-1.539262011,1771,1093,-0.258060665,0.766832841,-0.103186525,0.090675797,-1.332727488,-0.990807194,5.219321876,3.67203553,None,Non-gesture
0,-1.556297928,1.164098744,834,157,-0.093542688,1.240350939,-0.058206345,-0.210720375,-2.184789154,-1.926307371,6.9452498,6.455171728,Left,Left
1,-1.539262011,0.467246033,1667,625,-0.251564161,0.726064036,0.039719072,-0.071852152,-2.407245956,-2.065243426,6.904820087,4.069205131,None,Non-gesture
0,1.124231107,-0.31287872,1509,521,-0.54866224,1.496177639,0.582049372,0.92767144,-1.017196286,-1.56072441,3.427952436,6.268821242,None,Non-gesture
1,0.467246033,-1.05920843,1615,1041,-0.580179582,0.500646024,-0.318653448,0.009623265,-1.558106543,-0.978817314,5.697600485,3.711853003,None,Non-gesture
0,-1.335033097,1.448549226,781,208,-0.604039102,2.507680383,-0.124804068,-0.284325937,-2.098659965,-2.187888263,6.657050456,7.14952463,Left,Left
0,1.80375586,-1.145148283,781,312,0.376363631,1.170059197,-0.044666364,0.089512261,-2.303077278,-1.473254527,7.410074032,3.848773831,None,Right
0,2.009407141,-0.783406884,781,261,0.363737732,0.796797468,0.20878579,0.064175358,-1.171580984,-0.730595479,7.182288062,3.787193894,Right,Right
1,-1.764707408,0.455495114,1562,729,0.362130487,0.886115358,0.098317359,-0.028872254,-0.845869439,0.604943309,7.177245204,4.144544644,None,Non-gesture
0,-0.783406884,0.310386255,1459,520,0.49346109,0.833492299,0.42599122,-0.634920038,-0.469441468,-0.957317403,6.068173527,5.826261026,None,Non-gesture
1,0.455495114,-1.289986809,1510,782,0.436213776,0.68903115,-0.403832211,0.005235046,-1.320639862,-0.684252698,5.791712458,3.677619479,None,Non-gesture
0,1.975554052,-0.96111943,729,260,0.316765076,1.724830609,0.311409786,0.08821613,-0.54652953,-1.031454173,6.739893386,7.448073609,Right,Right
1,0.48691657,-0.861433446,1719,1197,0.042568133,0.724395135,0.244837977,0.169515007,-0.566552095,-0.398264936,3.907865954,6.188221463,None,Non-gesture
0,1.69845779,-0.464432892,781,260,0.159052816,2.446670645,0.012115182,0.080113213,-0.847141941,-0.352437827,7.110844627,5.56864952,Right,Right
1,-0.861433446,0.35988754,1302,678,-0.02582682,0.56405594,0.060179807,-0.020328568,-0.225196762,-0.025113029,7.081235174,4.331169597,None,Non-gesture
1,0.35988754,-1.025616324,1198,729,0.115971437,0.6193696,0.205572719,0.140130019,-0.42823737,-0.454101161,6.626902725,5.356113797,None,Non-gesture
0,-0.335516264,1.741061764,1146,938,-0.223072361,1.972959043,-0.338650037,-0.321628169,-0.607198975,-0.704635359,5.930434566,7.265586961,None,Non-gesture
0,1.741061764,-0.765809035,729,157,0.189845165,1.884121029,-0.143079221,-0.024288533,-0.666555521,-0.669302634,7.056287721,7.283117689,None,Right
0,1.782745343,-0.565602355,729,156,0.23507602,1.979305948,-0.039682753,0.043899938,-0.978793048,-0.495339085,7.488708719,4.299048881,Right,Right
0,-0.529997017,1.611722369,1355,1146,0.352804073,1.479512115,-0.282801177,-0.46486322,-0.659993213,-1.105234853,4.147148126,7.217391744,None,Non-gesture
0,1.611722369,-1.06024658,729,208,0.575348885,1.682309838,0.041017598,0.131879841,-0.731431089,-0.758411,7.230557765,6.222660874,Right,Right
1,-1.120620783,0.381794955,1563,624,0.400043887,0.433291307,0.0808319,-0.21548918,-0.362656582,0.412795384,7.225244692,4.18336174,None,Non-gesture
0,-1.06024658,1.812904572,1562,1250,0.464155155,1.470733117,0.715416084,-0.760341298,0.26534774,-0.901346671,5.711172611,6.598076831,None,Non-gesture
1,0.381794955,-0.903465703,1458,834,0.376885853,0.348184976,-0.238114137,0.028768518,-0.921435921,-0.551558533,6.377218897,4.105003955,None,Non-gesture
0,1.812904572,-0.956241486,729,208,0.299717464,3.913178648,0.253304792,0.064127562,-0.410541224,-0.422007477,7.078038848,4.185678138,Right,Right
1,-0.903465703,0.336558002,1302,625,0.354174101,0.328563496,0.051842669,-0.028027545,0.22833341,0.292661512,7.048238125,4.345560988,None,Non-gesture
0,-0.989701456,0.30085312,1251,521,0.105449494,1.843879693,-0.478120743,-0.67965823,-0.546633599,-1.235864718,3.903519795,6.683019027,None,Non-gesture
1,0.308197842,-1.576361328,1145,625,0.432869783,0.657216085,0.168279001,0.371528423,-0.385408723,-0.982156425,4.243290182,7.381446078,None,Non-gesture
0,1.80028822,-1.349277776,781,314,0.324076925,1.580270419,0.092673094,0.262626212,-0.494140452,-0.877745111,7.085063479,7.525331662,Right,Right
0,1.202811346,-1.765005958,834,313,0.581233352,6.88568086,0.191314729,0.063012131,0.091211852,-0.619459243,7.336422859,4.283898353,Right,Right
1,0.767401434,-0.800270974,625,261,-0.852312035,2.932497144,0.102466251,0.054695494,-1.203727522,-0.498974024,7.440741321,4.667344767,Up,Up
1,-0.800270974,0.413895797,1146,416,-0.911172526,3.648163502,0.429174899,-0.197984687,-1.177499304,-0.531490757,7.463722454,8.581233534,None,Non-gesture
1,0.774447668,-0.875906644,678,260,-0.940363414,3.927729139,0.17579203,0.142218407,-0.756949205,-0.518353645,7.591434759,9.134749508,Up,Up
1,0.735630454,-0.867530457,730,313,-0.85557464,2.663578122,0.018339382,0.056965386,-0.363458771,-0.065535249,7.812382386,4.835711886,None,Up
0,-0.355691201,0.512040592,781,365,-0.850532833,0.363232989,0.018382501,-0.015555969,-0.360974921,-0.104831544,7.815564758,4.864440897,None,Non-gesture
1,0.710781194,-0.891591148,729,260,-0.8624136,6.54126023,0.016368802,0.080906477,-0.293856969,-0.1683166,7.868947306,4.862064466,Up,Up
0,-0.326171445,0.373175661,729,364,-0.8624136,0.15287574,-0.0445131,-0.060840787,-0.293856969,-0.245508468,7.868947306,6.487304155,Left,Non-gesture
1,-0.891591148,0.672898394,1823,1615,-0.859525492,5.805911837,-0.390371198,-0.199163571,-0.160272827,-0.307790086,4.632310527,4.781142895,None,Non-gesture
1,0.672898394,-0.841526554,677,260,-0.832317712,5.676835806,0.006453534,0.010691114,-0.415961835,-0.241079401,7.79192799,4.817469286,Up,Up
0,0.398018826,-0.364990235,1250,989,-0.911418836,0.29085514,0.035705409,0.133229945,-0.452047847,-0.259274598,7.564983392,4.515388021,None,Non-gesture
1,-0.841526554,0.649655156,1355,1041,-0.858667266,3.723619199,0.373899176,-0.387763776,-0.579402149,-0.409457626,7.761558987,8.220556835,None,Non-gesture
1,0.649655156,-1.020216864,625,261,-0.848050133,3.248876081,0.003325173,0.204792326,-0.506105049,-0.565273392,7.733056381,8.443285768,Up,Up
0,-0.364990235,0.492041837,677,313,-0.846050181,0.305867686,-0.039073427,-0.123318201,-0.506105049,-0.605169964,7.733056381,8.590094642,None,Non-gesture
1,-1.020216864,0.326400982,1198,417,-0.827103648,3.237713084,0.320052528,-0.05322366,-0.752785093,-0.784533196,7.65406586,8.848048743,None,Non-gesture
0,0.492041837,-0.649621332,1511,1250,-0.804447027,0.538413937,0.07548645,0.286117823,-0.535939188,-0.380514199,7.452875532,6.696302381,None,Non-gesture
0,-0.649621332,0.489114174,782,260,-0.846170937,0.565300021,0.016042619,-0.053353138,-0.534077302,-0.325532637,7.704977331,4.712917165,Left,Non-gesture
1,0.731496314,-0.801077766,677,312,-0.911474678,3.794746435,0.007902701,0.049663194,-0.600681988,-0.315581191,7.639642628,4.773008794,Up,Up
0,-0.346845441,0.412798432,729,364,-0.90725366,0.259994426,-0.034162728,-0.004831677,-0.600681988,-0.348625792,7.639642628,4.792979934,Left,Non-gesture
1,-0.801077766,0.321584684,1823,366,-0.87605764,3.520730718,0.057093326,-0.016491838,-0.514462398,-0.468393315,4.935506307,4.800978483,None,Non-gesture
1,0.792402942,-1.139043487,624,209,-0.851721768,9.430551293,-0.050408725,0.005949795,-0.957022916,-0.596178954,7.611594883,4.701791887,Up,Up
1,-1.139043487,0.308830232,1510,417,-0.857496174,8.681962207,0.363360887,-0.436497733,-0.939080991,-0.850348396,6.825858805,7.831931526,None,Non-gesture
0,-0.390116348,0.380108615,624,208,-0.919626731,0.248476868,0.01451398,-0.022032523,-0.930745239,-0.602364673,7.624477152,4.796634807,Left,Non-gesture
1,0.742884481,-0.791302423,624,260,-0.918452517,4.012788766,0.021885368,0.121631108,-0.934845247,-1.092441128,7.620161285,8.864015628,Up,Up
1,-0.934587289,0.466852847,677,208,-0.845645628,2.184477536,0.002947224,-0.030986632,-0.916349897,-0.737647955,7.806885397,4.699412781,Down,Down
1,0.466852847,-0.685094762,1198,937,-0.752244875,1.044595901,-0.453709679,0.110977696,-0.658106555,-1.333129329,5.932294311,8.807906832,None,Non-gesture
1,-0.685094762,0.682107413,572,209,-0.855901728,1.66999804,0.0466289,-0.076760063,-0.90993425,-1.266336509,7.589213918,8.544306094,Down,Down
1,0.682107413,-0.80421627,1562,1251,-0.720175703,1.964374925,-0.369695298,0.348413788,-0.608534273,-1.185885397,5.870146043,8.159364271,None,Non-gesture
1,-0.80421627,0.549323502,625,208,-0.891081115,3.361238363,0.060295878,-0.076678752,-0.931160648,-0.777602136,7.671948971,6.2555725,Down,Down
0,-0.416491789,0.375754603,1198,1041,-0.865640102,0.574439966,0.17767069,-0.058778642,-0.764877259,-0.488370811,7.157550809,4.711312247,None,Non-gesture
1,0.549323502,-0.728700056,1198,989,-0.865640102,1.74082595,-0.410680737,0.112650872,-0.678972062,-1.113419845,6.666644346,8.719803709,None,Non-gesture
1,-0.728700056,0.608422487,573,209,-0.9212376,1.434609211,0.05772876,-0.096936987,-0.746740564,-0.920834916,7.606623634,8.40935632,Down,Down
0,0.375754603,-0.560581062,677,104,-0.921407398,0.687606626,0.117075469,0.187156802,-0.746740564,-0.844939802,7.606623634,8.318548657,None,Non-gesture
1,0.608422487,-0.725887801,1407,1093,-0.739712294,1.149422776,-0.369937839,0.175466905,-0.385446229,-1.019940614,5.87074116,8.468212324,None,Non-gesture
0,-0.560581062,0.306690443,1407,522,-0.739712294,0.870001901,0.187877302,-0.233045705,-0.266681823,-0.999609838,4.472135363,8.544472766,None,Non-gesture
1,-0.725887801,0.522297416,573,209,-0.896510082,1.191181975,0.067311338,-0.130948964,-0.585071748,-0.688979348,7.602451843,7.935043395,Down,Down
0,0.349882607,-0.641645689,573,157,-0.920060399,0.826252033,0.109175022,0.216562056,-0.570327762,-0.570577362,7.542431292,8.709669683,None,Non-gesture
1,0.522297416,-0.720753963,1301,1093,-0.720871851,0.862778899,-0.398489267,0.156646222,-0.36471075,-0.761308167,6.634669371,8.492957779,None,Non-gesture
0,0.369146004,-0.578706883,1354,781,-0.681623307,0.99544365,-0.171088722,0.177797045,-0.879977598,-0.471104721,7.556414997,7.719870619,None,Non-gesture
1,-0.720753963,0.532958516,573,156,-0.91811541,1.398789099,0.07571071,-0.071348534,-0.374306293,-0.529597513,7.548713372,8.232183389,Down,Down
1,0.532958516,-0.762955408,1302,1094,-0.706092945,1.130176944,-0.290719104,0.106473928,-0.177313466,-0.613167308,5.887614806,8.532165649,None,Non-gesture
1,-0.762955408,0.49943882,522,157,-0.880359887,1.495692923,0.097786409,-0.079939984,-0.312707792,-0.416621814,7.549898875,8.203250699,Down,Down
0,-0.557611451,0.317954483,1302,468,-0.653893533,0.791241138,0.154483422,-0.137784149,-0.174500628,-0.226180002,7.109639765,4.754519231,None,Non-gesture
0,0.317954483,-0.426799902,1301,781,-0.583746246,0.598608344,-0.195092899,0.107429198,-0.597111866,-0.241381264,7.498534178,7.86998945,None,Non-gesture
1,-0.720836736,0.469935148,572,156,-0.893547496,2.969447973,0.076700387,-0.06482496,-0.171094266,-0.258869165,7.510596123,8.170429962,Down,Down
1,0.469935148,-0.650615761,1302,1041,-0.711191624,1.97160506,-0.289346556,0.151909831,-0.042345871,-0.422294937,5.857764073,8.616621928,None,Non-gesture
1,-0.650615761,0.626469095,572,209,-0.920415642,2.105393702,0.089934984,-0.13313076,-0.108163289,-0.247327405,7.497704465,8.102895936,Down,Down
1,0.626469095,-0.783079786,1301,1042,-0.788315597,1.856511307,-0.316255617,0.132013943,-0.007616426,-0.410531028,6.614024089,8.469550907,None,Non-gesture
1,-0.783079786,0.497751484,521,208,-0.913449138,2.110892176,0.080826539,-0.053038775,-0.110947095,-0.280554877,7.547539096,8.234180396,Down,Down
