True x,True y,True z,Measured x (LSM),Measured y (LSM),Measured z (LSM),Measured x (Kalman),Measured y (Kalman),Measured z (Kalman),Distance from Salazar,Distance from Godric,Distance from Rowena,Distance from Helga
0.0,0.0,50.0,-7.27652313127,13.9298902076,55.2313685048,-152.759565051,79.0715250753,163.52934194,201.61,395.92,343.96,474.13
0.0,0.0,50.0,-269.608785782,153.297682048,257.997722835,-184.327107884,99.1241824649,189.050561864,202.27,801.26,346.48,485.66
0.0,0.0,50.0,-274.578913116,143.012578572,258.151004095,-208.7091937,110.980905302,207.718475576,202.27,805.1,363.18,485.13
0.0,0.0,50.0,-270.704239313,153.605107224,258.172839824,-225.457540378,122.496098228,221.349035494,201.61,805.1,347.81,485.13
0.0,0.0,50.0,-266.645844416,138.258617847,257.816347056,-236.58481657,126.754440818,231.200906242,200.94,786.01,358.68,481.68
0.0,0.0,50.0,-8.32655620909,-0.390750738318,53.0069907053,-174.919429623,92.4053775093,183.060713042,202.4,399.63,358.68,481.68
0.0,0.0,50.0,-7.36301337814,-4.19948793508,54.4703167594,-129.653022935,66.3069730125,148.3212187,202.27,395.52,358.68,485.79
0.0,0.0,50.0,-8.19048987597,-3.58142205194,54.2340525045,-96.8391651196,47.4261889481,122.902986295,202.4,396.59,358.54,485.79
0.0,0.0,50.0,-7.21780947268,-2.63460721057,53.8467990903,-72.6273991752,33.9019538946,104.247028353,202.4,396.59,358.54,483.93
0.0,0.0,50.0,-12.4945164829,0.0099498141108,53.2329252878,-56.3821273781,24.7458184595,90.465251517,202.27,403.35,358.54,483.93
