True x,True y,True z,Measured x (LSM),Measured y (LSM),Measured z (LSM),Measured x (Kalman),Measured y (Kalman),Measured z (Kalman),Distance from Salazar,Distance from Godric,Distance from Rowena,Distance from Helga
82.125,0,50,71.31553431,1.71199308,57.64999237,69.23927247,2.408181601,56.89732922,213.67,324.48,354.96,435.55
82.125,0,50,69.17765616,3.049761969,56.41608274,69.22262644,2.581508523,56.76731749,213.67,327.66,354.96,435.55
82.125,0,50,67.5761865,1.990498136,56.62289822,68.77783046,2.421843396,56.72830173,213.67,327.66,354.17,438.6
82.125,0,50,67.4594867,1.864844804,56.83881384,68.42167171,2.271366766,56.75815726,213.4,327.66,354.17,438.6
82.125,0,50,70.24796281,1.483911765,56.45332241,68.91505559,2.058630906,56.67580423,213.4,327.66,357.35,434.76
82.125,0,50,70.54189333,1.798299857,55.91761898,69.35455591,1.988300856,56.47097578,214.07,327.66,357.35,434.76
82.125,0,50,69.97813948,3.046009974,56.00925962,69.52302089,2.274047545,56.34624029,214.07,327.66,355.76,434.76
82.125,0,50,69.79680089,3.159471166,55.90546446,69.59698426,2.513250236,56.22716196,214.07,327.93,355.76,434.76
82.125,0,50,70.40670549,1.809716904,55.8055261,69.81573548,2.323186336,56.11325441,214.07,327.93,357.48,434.76
82.125,0,50,70.05564062,1.434076463,56.44553042,69.88054734,2.082987781,56.20302084,213.27,327.93,357.48,434.76
82.125,0,100,81.05879717,-6.533098788,106.6389228,78.41732288,-11.68182627,109.6038127,173.77,286.84,337.07,417.66
82.125,0,100,81.45126142,-6.135337429,105.7299555,79.23696022,-10.18340785,108.5572661,174.83,286.84,337.07,417.66
82.125,0,100,81.53236128,-6.340676642,105.7368787,79.85707708,-9.145270146,107.7953209,174.83,286.84,337.34,417.66
82.125,0,100,81.18767575,-6.689820641,106.5347977,80.21654657,-8.481915209,107.4547828,173.9,286.84,337.34,417.66
82.125,0,100,81.56302599,-7.288592934,106.3300144,80.58030635,-8.159531784,107.1509196,174.17,286.84,338.26,417.66
82.125,0,100,84.50008622,-13.75814824,106.0607905,81.63925923,-9.672032798,106.8564145,174.96,286.84,347.14,417.66
82.125,0,100,80.72064875,-5.321580588,106.3716284,81.3910909,-8.496731109,106.7254465,174.04,286.84,335.61,417.66
82.125,0,100,81.06010335,-4.976523244,105.5865085,81.30167256,-7.545725087,106.4177553,174.96,286.84,335.61,417.66
82.125,0,100,84.61819676,-14.0634632,106.0863272,82.19765218,-9.306532525,106.328218,174.96,286.84,347.54,417.66
82.125,0,100,84.51881417,-14.16210192,106.315829,82.82472851,-10.61829476,106.324871,174.7,286.84,347.54,417.66
82.125,0,150,-284.5253583,-17.25793975,258.0015701,-267.4059649,-0.173889922,257.1399497,130.69,679.58,325.67,852.55
82.125,0,150,-284.8004085,-17.11476498,258.1324594,-272.1051819,-4.750572552,257.4080823,131.36,679.58,325.67,852.68
82.125,0,150,-284.7729828,-16.62531132,258.0218888,-275.527467,-7.958606994,257.5739059,131.36,679.58,324.88,852.68
82.125,0,150,-284.514783,-16.82656546,257.9455335,-277.9554462,-10.35434106,257.6743034,130.69,679.58,324.88,852.68
82.125,0,150,-245.7228133,-38.25431524,257.9785201,-269.2476002,-17.89169239,257.7564894,25.58,679.58,324.08,852.68
82.125,0,150,-282.5614633,-13.4057075,258.0027614,-272.844423,-16.67977571,257.8230213,131.49,679.58,324.08,841.55
82.125,0,150,-283.7746466,-13.48565038,258.0112046,-275.7972908,-15.81686291,257.8738602,130.69,683.42,325.67,841.55
82.125,0,150,-283.6876142,-13.52467916,257.995223,-277.9289107,-15.19761523,257.9066471,130.69,683.16,325.67,841.55
82.125,0,150,-283.6967694,-11.7722061,258.0041113,-279.4871335,-14.27221968,257.9329777,130.83,683.16,323.15,841.55
82.125,0,150,-283.6339994,-11.84769011,258.0792095,-280.6074351,-13.61721795,257.9724831,130.69,683.16,323.15,841.55
164.25,0,50,153.4779601,-2.302757716,60.37327109,153.505282,-0.998722901,59.69185277,253.83,260.19,377.76,397.51
164.25,0,50,153.5892451,-1.704823708,60.89512917,153.5279652,-1.18948042,60.01692536,253.04,260.19,377.76,396.06
164.25,0,50,153.5631952,-1.467269177,60.80630128,153.5374828,-1.264526778,60.23018017,253.17,260.19,377.5,396.06
164.25,0,50,151.5040662,-1.42146646,59.05093807,152.9881427,-1.306925008,59.91160059,253.17,262.98,377.76,397.65
164.25,0,50,153.6919715,-3.139452024,59.87620575,153.1782864,-1.801993565,59.90203846,253.96,260.86,379.35,397.65
164.25,0,50,154.2717397,0.222744865,59.85243089,153.4736896,-1.254997901,59.88863666,253.96,260.86,377.63,394.33
164.25,0,50,147.0047467,5.861862333,51.25845864,151.7260645,0.667666101,57.55714046,254.23,274.64,378.69,394.33
164.25,0,50,146.7980044,-0.012897974,53.52391303,150.3947185,0.483807488,56.46753902,254.23,270.8,378.69,400.69
164.25,0,50,153.7848924,-1.090344811,60.26109952,151.310595,0.058540466,57.49239295,254.23,259.93,376.84,396.72
164.25,0,50,154.0743893,-1.281864598,60.26333812,152.0572512,-0.303578288,58.240981,254.23,259.93,377.37,396.45
164.25,0,100,164.8298194,3.204772096,106.0046665,162.6678278,0.723923195,106.3909393,222.15,225.47,365.83,358.01
164.25,0,100,158.9019479,-8.45042113,106.9820382,161.650452,-1.754582914,106.5506284,221.09,225.47,365.83,375.78
164.25,0,100,156.7069147,-3.306625107,106.5389064,160.3149247,-2.173876754,106.5474616,221.36,225.47,358.15,375.78
164.25,0,100,158.3126174,-1.575514054,107.61276,159.7739889,-2.012225354,106.8352586,221.09,224.27,358.15,372.06
164.25,0,100,150.6589609,3.178419184,95.47563439,157.3115075,-0.609940488,103.7663855,221.36,241.24,361.33,372.06
164.25,0,100,148.3789189,3.345443502,95.46860469,154.8983132,0.458631067,101.5246885,221.36,241.24,357.75,375.64
164.25,0,100,148.5434908,4.11768145,95.17877866,153.1815184,1.447146258,99.81030153,222.02,240.97,356.82,375.64
164.25,0,100,157.2378577,-3.434714773,105.9623212,154.2773637,0.128281175,101.4723079,222.02,225.6,358.94,375.64
164.25,0,100,156.6322733,-3.255948883,105.9654229,154.9135572,-0.785989598,102.6861508,221.49,226.13,358.68,375.64
164.25,0,100,156.9165421,-0.77524531,105.5392902,155.454676,-0.783086962,103.4569441,222.02,226.13,356.95,373.79
164.25,0,150,152.8516599,-7.594423339,142.3307827,154.2367623,-6.47392382,146.1767429,190.6,211.81,354.57,359.87
164.25,0,150,152.4280633,-6.919680747,142.5130877,153.748131,-6.594347823,145.1869837,190.34,211.81,353.37,359.87
164.25,0,150,151.2011482,-5.953361435,140.1454578,153.0600478,-6.421181368,143.8249842,190.47,214.46,353.37,359.87
164.25,0,150,151.7842212,-7.39932395,140.2420966,152.7153753,-6.685432663,142.8570448,190.47,214.46,355.63,359.87
164.25,0,150,151.4303779,-7.649531195,139.1157531,152.3682253,-6.94588987,141.8463116,191.13,215.13,355.63,361.06
164.25,0,150,151.5820094,-8.361217235,138.853095,152.1558242,-7.328249349,141.0376755,191.13,215.52,356.95,361.06
164.25,0,150,150.9331565,-7.802378816,137.5075916,151.8255129,-7.45633837,140.0840014,191.27,216.98,356.95,361.06
164.25,0,150,153.5416176,-9.735111182,142.0078159,152.2891293,-8.071963001,140.6037319,191.27,211.68,357.09,361.06
164.25,0,150,155.4137365,-10.28055485,143.3352907,153.1332613,-8.668627809,141.3416795,192.46,208.9,357.09,361.06
164.25,0,150,153.8195283,-8.227377959,141.2622333,153.3186606,-8.549421421,141.3202166,192.46,211.15,355.1,361.06
246.375,0,50,230.7041243,-5.931731339,58.19813247,232.7995655,-6.674041198,59.67333531,310.3,218.84,416.73,374.05
246.375,0,50,229.7498791,-6.757020936,58.87116355,231.9756737,-6.69645869,59.45662362,308.57,219.1,417.26,373.92
246.375,0,50,231.593072,-9.503094364,59.79865304,231.8723115,-7.454688752,59.54902499,308.44,218.31,421.11,373.92
246.375,0,50,231.6997803,-6.297970054,59.68063702,231.8257011,-7.14219401,59.5845808,308.44,218.31,419.12,371.27
246.375,0,50,235.6024624,-12.2772469,59.73518945,232.8460166,-8.529460447,59.62526866,308.44,219.1,429.72,371.27
246.375,0,50,234.5435804,-10.86859662,59.5573304,233.304624,-9.161392613,59.60691472,308.44,219.1,427.2,371.4
246.375,0,50,235.7364864,-11.20144459,60.33687911,233.9616068,-9.712525327,59.80411913,309.24,217.64,427.2,371.4
246.375,0,50,229.2592024,-9.315945791,59.53463238,232.691223,-9.605386901,59.73131561,309.24,217.78,416.47,377.5
246.375,0,50,231.6124866,-3.984108482,59.64970919,232.3997957,-8.086763618,59.70926913,309.1,217.78,416.47,370.34
246.375,0,50,235.6872613,-9.329034582,59.44946916,233.2879249,-8.422370835,59.63908255,309.24,218.71,426.94,369.81
246.375,0,100,237.6840251,2.434855391,108.3188717,236.5610535,0.190758189,109.0143904,284.71,172.71,395.13,338.79
246.375,0,100,238.2675057,2.296816506,108.5344106,237.0220621,0.759722926,108.8847209,284.32,172.71,396.59,337.73
246.375,0,100,237.8509235,2.455653132,108.1134214,237.2459842,1.217889006,108.6763495,284.05,173.37,396.59,337.73
246.375,0,100,236.8988423,-0.089233247,108.0055108,237.1522017,0.864761809,108.4951183,284.18,173.37,396.59,341.31
246.375,0,100,236.8393483,0.661073029,108.4616586,237.0676824,0.80973402,108.4860789,284.58,172.58,394.86,341.31
246.375,0,100,236.50897,1.547026846,107.9091847,236.9167428,1.008918257,108.3302274,283.52,173.9,395.79,339.59
246.375,0,100,235.629612,-0.936879811,107.5541035,236.5690164,0.483248822,108.1205527,283.92,174.04,395.79,343.3
246.375,0,100,236.5448575,3.976129034,107.7415025,236.5624897,1.426872108,108.0181499,283.92,173.9,393.8,337.87
246.375,0,100,239.2291905,11.34743795,108.5143069,237.2829155,4.106974597,108.1521898,283.26,173.9,393.8,327.26
246.375,0,100,237.6549847,2.784644194,106.9657815,237.3834323,3.749738825,107.8316742,283.26,175.23,398.44,336.54
246.375,0,150,236.4400886,-8.255477235,157.6575579,239.5331147,-9.876545023,157.6727868,261.78,133.87,384.79,331.37
246.375,0,150,239.615168,-14.5231566,157.7985458,239.5552819,-11.13185601,157.7067614,261.78,133.87,396.19,332.17
246.375,0,150,239.2977406,-15.90462386,157.6955332,239.4857055,-12.42124889,157.703728,262.18,134.01,396.19,334.29
246.375,0,150,240.0098114,-8.968260552,156.710813,239.627296,-11.48840264,157.4354859,262.18,134.01,392.74,327.13
246.375,0,150,240.1622603,-11.6354293,157.0005049,239.7718199,-11.52812281,157.317973,263.64,133.21,392.74,331.11
246.375,0,150,241.0997944,-8.333527349,156.0893915,240.1305805,-10.665083,156.9860641,263.64,133.61,392.74,326.73
246.375,0,150,243.7846528,-3.695122931,156.7219364,241.1177508,-8.78210499,156.9147084,261.52,133.34,397.12,316.39
246.375,0,150,132.57198,-20.98745611,258.0022507,211.7934366,-12.07945641,184.2241359,25.71,134.93,397.91,326.07
246.375,0,150,239.3381563,-15.06854116,157.3139535,219.2348137,-12.88697623,176.9541829,260.86,134.93,397.91,331.77
246.375,0,150,240.2539072,-13.02291621,156.9905943,224.9132524,-12.92370126,171.5608955,261.12,134.67,397.91,328.99
246.375,287,50,232.9082366,290.5543067,58.09384676,232.9736467,291.0073134,58.93935477,416.2,371,311.62,218.44
246.375,287,50,239.6131955,301.2547324,59.54303104,234.7673621,293.7757173,59.10244166,433.7,371,310.96,218.44
246.375,287,50,232.9370775,292.8242216,57.910955,234.2728993,293.5186648,58.78055414,418.99,371.93,310.96,219.24
246.375,287,50,232.7206001,292.5073006,57.88197988,233.8535361,293.2454385,58.53779872,418.46,371.93,310.96,219.24
246.375,287,50,232.6695365,292.2263579,58.5502177,233.5336712,292.9701275,58.54115379,417.26,371.93,310.96,218.31
246.375,287,50,234.0813915,293.0794695,58.78131015,233.6816413,292.9996669,58.60603352,418.72,371.93,311.75,217.64
246.375,287,50,232.8068901,293.2004346,58.6804438,233.4453218,293.0539056,58.62613592,418.72,371.93,310.43,218.57
246.375,287,50,231.3859307,290.3829369,57.50758571,232.8889645,292.3323268,58.32395263,414.08,372.86,311.89,218.84
246.375,287,50,232.051075,289.9381598,57.00171277,232.6626034,291.6855277,57.96674132,414.08,372.86,312.95,218.84
246.375,287,50,232.3305555,292.30036,57.85024527,232.5728986,291.8516285,57.93526919,417,372.86,311.49,218.84
246.375,287,100,232.6752529,286.5499982,104.319058,234.8443972,282.5921677,104.9350719,392.74,345.02,283.79,178.15
246.375,287,100,232.0823097,283.7174964,106.0801509,234.0982021,282.8961822,105.2444221,392.21,339.85,280.61,178.15
246.375,287,100,229.9677763,286.7758863,104.2294993,232.9823419,283.9443084,104.9702344,392.74,344.89,280.61,180.27
246.375,287,100,232.2335495,286.240588,103.7975773,232.780051,284.5646626,104.6534338,392.74,344.89,283.52,178.94
246.375,287,100,237.0562399,273.6895813,104.1760396,233.93529,281.6266918,104.5244628,392.61,327.66,283.52,179.34
246.375,287,100,237.55111,272.3603649,103.0660154,234.9121262,279.123336,104.1304542,391.55,327.66,285.24,179.74
246.375,287,100,232.3801043,283.8618709,101.5800791,234.2280848,280.4034807,103.4414545,391.55,344.23,285.24,180.53
246.375,287,100,234.5614291,277.1948969,102.4009057,234.3181398,279.5366618,103.1603438,391.55,334.42,284.18,180.66
246.375,287,100,231.466766,281.9540814,101.7446973,233.5478235,280.1897427,102.7778981,389.96,342.51,284.18,181.06
246.375,287,100,234.4533252,271.5198121,103.5591468,233.7924504,277.8475071,102.9889573,389.96,326.73,281.67,181.46
246.375,287,150,232.7435835,290.1741989,155.3811225,234.0377008,290.172108,155.0539742,377.63,329.25,259.8,137.72
246.375,287,150,234.9492746,285.9876294,154.6480373,234.2839681,289.0416451,154.9443079,377.63,323.68,261.12,137.32
246.375,287,150,238.7737833,291.154398,153.6382196,235.4969196,289.6124184,154.59146,388.76,323.68,261.92,137.32
246.375,287,150,237.0232121,291.4740992,153.8214622,235.909257,290.1153631,154.3834403,388.76,323.68,259.66,138.65
246.375,287,150,233.1814476,286.9676237,154.2329851,235.1723223,289.2649817,154.3427939,377.37,325.27,259.66,138.78
246.375,287,150,233.8647617,286.7601169,153.5111064,234.8190767,288.5882769,154.1181084,377.63,325.27,260.72,138.78
246.375,287,150,232.3302911,287.1478069,154.6450766,234.1467158,288.199125,154.2604721,377.23,325.27,258.47,139.18
246.375,287,150,231.396995,285.7867539,153.9712608,233.4038617,287.547408,154.1823399,374.98,325.27,258.47,139.97
246.375,287,150,233.2410892,286.0402347,153.8999951,233.3598877,287.1402358,154.1060627,375.91,325.27,260.46,138.65
246.375,287,150,232.9378093,285.7444343,152.9863106,233.2458606,286.7631513,153.8035547,375.91,325.27,260.46,139.57
164.25,287,50,157.5739837,281.7855007,61.11456662,150.2817543,273.710828,70.64302244,372.99,389.16,255.69,257.54
164.25,287,50,155.8841093,286.9985027,61.01888968,151.7952653,277.3005758,68.04300319,374.58,395.52,255.69,257.54
164.25,287,50,156.4086711,286.5636462,60.23801685,153.0416056,279.8030518,65.93443765,374.71,395.52,256.75,257.67
164.25,287,50,156.3353552,284.3024082,59.92471472,153.9314325,281.0185809,64.31087367,373.52,393.67,256.75,258.2
164.25,287,50,156.6506501,284.9350192,60.17605797,154.666046,282.076631,63.19382752,374.18,393.67,256.61,257.94
164.25,287,50,160.6045674,275.619455,60.03219651,156.2703744,280.3321848,62.33969326,373.39,380.68,256.61,258.73
164.25,287,50,161.0335627,275.9742117,60.521001,157.5571793,279.1548513,61.84836225,373.39,380.68,256.61,257.94
164.25,287,50,155.1175426,282.6492979,59.02912297,156.8980963,280.0988978,61.08672725,372.46,393.27,256.61,259.8
164.25,287,50,156.1768604,284.0739921,59.5950428,156.70325,281.1727942,60.68373943,373.92,393.27,256.61,258.87
164.25,287,50,155.4956382,284.1423946,59.08897703,156.3770061,281.9750502,60.25290446,373.92,393.93,256.61,259.66
164.25,287,100,158.6855303,282.3062519,105.210175,159.4684958,282.8383885,106.0772843,352.58,368.75,223.74,225.33
164.25,287,100,159.6371295,283.1459965,106.7385764,159.5140532,282.9214907,106.2559365,352.58,368.75,223.61,223.34
164.25,287,100,159.2660166,282.8107493,105.9698928,159.4470446,282.8915732,106.17866,352.71,368.75,223.74,224.27
164.25,287,100,157.6919199,281.7045238,105.5889408,158.9728868,282.5708844,106.0193437,349.93,370.21,223.74,224.8
164.25,287,100,158.0249879,281.8667289,105.8743697,158.716806,282.3806525,105.9801781,349.93,370.21,223.87,224.27
164.25,287,100,159.1017874,279.2890673,105.7300107,158.8208111,281.5454415,105.9125938,350.06,366.1,223.87,224.67
164.25,287,100,158.5200034,279.0383282,104.972434,158.739546,280.8681293,105.6586038,350.33,366.1,223.74,225.86
164.25,287,100,158.5200034,279.0383282,104.972434,158.6802352,280.3737972,105.4732308,350.33,366.1,223.74,225.86
164.25,287,100,158.6000688,279.4024412,105.6354043,158.6585778,280.1113793,105.5170429,350.33,366.1,223.34,225.33
164.25,287,100,158.561303,278.7376238,106.1471537,158.6322984,279.7402507,105.6872713,349,365.97,223.34,224.67
164.25,287,150,157.7521885,283.7290525,152.2451074,157.99684,284.6532556,153.9552406,338.13,350.99,191.8,199.35
164.25,287,150,158.0381128,284.0795813,152.9615995,158.0079901,284.4982739,153.6868023,338.26,350.99,191.67,198.69
164.25,287,150,157.9680508,283.9431406,152.5964747,157.9972003,284.3483012,153.3922435,338.26,350.99,191.8,198.96
164.25,287,150,157.3094762,282.673128,152.267968,157.8114073,283.8957428,153.0885135,336.41,350.99,191.8,199.35
164.25,287,150,158.7277026,284.146165,151.1386238,158.0589502,283.9633959,152.5617387,339.46,350.99,193.12,199.22
164.25,287,150,158.3524805,284.3726477,149.8216409,158.1382492,284.0739578,151.8214843,340.65,350.99,193.12,200.68
164.25,287,150,158.3524805,284.3726477,149.8216409,158.1961251,284.1546507,151.2812142,340.65,350.99,193.12,200.68
164.25,287,150,160.3034101,286.2320125,150.3851088,158.7654212,284.7158629,151.0391257,343.3,350.99,194.18,198.96
164.25,287,150,159.8312681,286.3219855,150.6375068,159.0533664,285.1497669,150.9306259,343.3,350.99,193.52,199.35
164.25,287,150,159.8312681,286.3219855,150.6375068,159.2635214,285.466449,150.8514379,343.3,350.99,193.52,199.35
82.125,287,50,103.1961729,227.6537749,56.02083912,101.0675004,226.8844064,54.86329347,344.76,350.99,217.64,331.24
82.125,287,50,102.3787674,227.6573417,54.78223163,101.4217473,227.0932197,54.84139411,346.22,350.99,217.64,333.62
82.125,287,50,102.1752211,227.0724643,54.87988037,101.6253029,227.0876125,54.85179141,345.42,350.99,217.78,333.62
82.125,287,50,99.65939691,224.9348363,53.64297135,101.0942012,226.5060266,54.52522116,344.49,350.99,217.78,337.6
82.125,287,50,99.65939691,224.9348363,53.64297135,100.7065799,226.0815598,54.2868759,344.49,350.99,217.78,337.6
82.125,287,50,102.6291134,228.3013892,55.47803833,101.2259643,226.6812605,54.60867583,346.22,350.99,217.11,332.7
82.125,287,50,102.1607862,227.8821677,55.79034516,101.4785122,227.005693,54.92791114,345.42,350.99,216.85,332.83
82.125,287,50,98.96489022,225.5929173,53.72462246,100.7994416,226.6240229,54.60283523,345.29,350.99,216.85,338.53
82.125,287,50,99.02798884,225.5215931,53.63843237,100.3208727,226.3261947,54.3422958,345.29,350.99,216.98,338.53
82.125,287,50,101.3017585,227.11296,55.14294551,100.5858651,226.5387442,54.5585963,345.29,350.99,216.98,334.42
82.125,287,100,94.16600089,250.1067734,95.98709911,94.21690645,251.0399529,96.39251284,335.61,350.99,177.08,308.97
82.125,287,100,94.24304579,250.2819022,95.93851226,94.22396816,250.8351608,96.26986176,335.88,350.99,177.08,308.97
82.125,287,100,96.72420322,254.2041175,93.8161753,94.89942219,251.7453053,95.60698312,342.77,350.99,178.28,308.97
82.125,287,100,95.96444654,254.0351361,93.67234655,95.18714513,252.3639173,95.08432904,342.77,350.99,177.88,310.03
82.125,287,100,92.78841844,248.3305234,96.18315635,94.53911422,251.2742709,95.38118406,333.23,350.99,176.82,310.03
82.125,287,100,92.89826423,248.2107343,95.98072496,94.0958284,250.4466374,95.54315376,333.23,350.99,177.08,310.03
82.125,287,100,92.48303752,248.0209187,96.51986635,93.66012293,249.7913145,95.80701873,332.56,350.99,176.55,310.03
82.125,287,100,92.82037389,247.6525484,95.89766113,93.43325951,249.2135135,95.83150634,332.56,350.99,177.35,310.03
82.125,287,100,93.77084381,249.8034641,95.28025625,93.52446001,249.3728923,95.6825827,335.88,350.99,177.35,310.03
82.125,287,100,93.65648666,249.5440741,95.35311855,93.56012783,249.4191381,95.59357592,335.48,350.99,177.35,310.03
82.125,287,150,82.49473637,259.6438355,149.0004942,84.43402719,260.7878153,150.4788443,311.36,350.99,131.09,287.5
82.125,287,150,82.49473637,259.6438355,149.0004942,83.91011573,260.4787621,150.0794589,311.36,350.99,131.09,287.5
82.125,287,150,82.02130769,258.3399549,149.3156292,83.3998425,259.9009501,149.8731055,309.37,350.99,131.09,287.5
82.125,287,150,82.43416859,258.9782721,148.7506328,83.1389597,259.6516829,149.5698626,310.56,350.99,131.49,287.5
82.125,287,150,84.12445005,262.475063,147.0170363,83.40519604,260.4144365,148.8802007,316.39,350.99,132.42,287.5
82.125,287,150,84.18841908,262.6526603,146.9800972,83.61678861,261.0191066,148.3668759,316.66,350.99,132.42,287.5
82.125,287,150,82.62843752,259.0137007,148.3339392,83.34977942,260.4773337,148.3579779,310.83,350.99,131.89,287.5
82.125,287,150,83.47996902,261.3623614,147.7938704,83.38495095,260.7164295,148.2055807,314.41,350.99,131.89,287.5
82.125,287,150,82.92350195,259.6623605,148.0472676,83.26028764,260.4316662,148.1628114,311.89,350.99,132.02,287.5
82.125,287,150,82.31037746,257.6579732,148.2709822,83.0036635,259.6823358,148.1920344,308.97,350.99,132.28,287.5
0,215.25,50,-17.45606138,222.76251,53.6341003,-32.97215914,213.8837689,63.32647558,302.21,460.34,215.66,406.53
0,215.25,50,-21.70550845,214.740563,58.60092147,-29.92840347,214.1152372,62.04983778,291.47,460.34,215.26,406.53
0,215.25,50,-19.15024055,216.5346085,59.02838005,-27.01661581,214.7688454,61.23357221,291.47,460.34,214.6,402.68
0,215.25,50,-18.56139787,215.6754077,57.75234604,-24.73238616,215.0137588,60.29309733,291.47,460.34,216.19,402.68
0,215.25,50,-18.74515887,217.3098683,56.44428149,-23.11489951,215.634067,59.25331582,294.52,460.34,216.19,404.54
0,215.25,50,-19.54432656,217.427407,57.8630923,-22.15028705,216.118549,58.8777383,293.73,460.34,214.86,404.54
0,215.25,50,-18.23903964,218.1948425,57.93285018,-21.09363927,216.6794725,58.62247091,293.73,460.34,214.73,402.68
0,215.25,50,-18.28869121,218.0951787,57.98930792,-20.33586512,217.0619344,58.45141799,293.6,460.34,214.73,402.68
0,215.25,50,-18.28869121,218.0951787,57.98930792,-19.78280837,217.3410718,58.32657608,293.6,460.34,214.73,402.68
0,215.25,50,-11.60595657,230.7673284,50.68077521,-17.57378107,220.9682584,56.26101548,310.43,460.34,215.39,402.68
0,215.25,100,-134.3031814,172.4354243,185.4293709,-90.54293202,187.1714046,158.4771896,255.29,444.83,170.72,535.23
0,215.25,100,-195.4726298,127.8615541,258.0041603,-118.8903417,171.1484801,185.365019,255.29,444.83,170.32,691.64
0,215.25,100,-132.5881925,174.1715371,181.1884576,-122.5909012,171.9651777,184.236695,257.01,444.83,170.32,533.38
0,215.25,100,-132.5505625,173.0966075,180.8289743,-125.2815656,172.2708405,183.3160781,256.08,444.83,171.12,533.38
0,215.25,100,-132.9151708,172.2882308,182.9453829,-127.3438314,172.2755386,183.2159325,254.76,444.83,171.12,533.38
0,215.25,100,-19.22121745,216.396013,108.5642015,-98.13383563,184.1949588,163.0483036,258.34,444.83,170.19,377.63
0,215.25,100,-19.11599994,215.9046752,108.1293954,-76.78667647,192.7615357,148.2116194,258.07,444.83,170.86,377.63
0,215.25,100,-17.52728839,216.5982012,107.9732046,-60.77738467,199.2011589,137.3409617,258.07,444.83,170.86,375.38
0,215.25,100,-17.58660011,216.1935498,107.952739,-49.10912593,203.7917589,129.4015508,257.67,444.83,171.12,375.38
0,215.25,100,-16.95886016,216.1678355,107.4622068,-40.42353192,207.1352329,123.4745007,257.67,444.83,171.65,374.71
0,215.25,150,-201.8057973,330.0372372,258.0058377,-202.0012856,327.8033307,257.9849159,235.8,912.6,127.25,443.77
0,215.25,150,-202.2387881,329.6708854,258.0641926,-202.0654483,328.3078622,258.006333,235.8,912.6,126.32,445.63
0,215.25,150,-202.0383773,331.1909633,257.9631103,-202.0581349,329.0867499,257.9946561,237.92,912.6,126.32,445.63
0,215.25,150,-201.8546082,331.3887138,257.9915768,-202.0031509,329.7086397,257.9938242,238.19,912.6,125.79,445.63
0,215.25,150,-202.0397646,330.1854621,258.0048393,-202.0130423,329.8374562,257.9968,236.47,912.6,125.92,445.63
0,215.25,150,-202.3380213,330.4154037,257.9972337,-202.1008374,329.9935923,257.9969172,237,912.6,126.85,445.63
0,215.25,150,-203.7668401,331.1187974,257.9206752,-202.5509184,330.2975735,257.9763199,239.65,912.6,126.85,449.47
0,215.25,150,-204.7928037,329.8112438,258.0167375,-203.1565776,330.1661885,257.987239,238.72,912.6,126.58,451.99
0,215.25,150,-204.5711196,331.3143846,257.9550359,-203.5387249,330.4763808,257.9785391,240.84,912.6,126.45,451.99
0,215.25,150,-204.409348,330.5409121,257.9801212,-203.7739292,330.4938143,257.9789665,239.52,912.6,125.79,451.99
0,143.5,50,-33.30006046,138.2225839,63.04362425,-33.64585561,139.3319023,65.30660107,241.9,432.51,247.47,438.6
0,143.5,50,-32.9410984,138.1364133,63.40289444,-33.45546107,139.0089335,64.7923029,241.24,432.51,247.47,437.68
0,143.5,50,-23.90098836,143.1764947,62.04057615,-30.87426092,140.1348261,64.04890682,241.24,432.51,247.47,423.89
0,143.5,50,-22.22639203,144.3507392,61.50252723,-28.53798542,141.2737812,63.36098656,241.77,432.51,247.47,421.64
0,143.5,50,-21.95555475,145.2812832,62.04473546,-26.75970088,142.3564328,63.00539315,241.77,432.51,246.54,420.71
0,143.5,50,-22.25894809,144.7618288,62.58050465,-25.54379456,143.0062654,62.89060688,240.97,432.51,246.54,420.71
0,143.5,50,-22.10789795,144.6825862,62.30826898,-24.61556575,143.4591339,62.73328468,241.11,432.51,246.81,420.71
0,143.5,50,-21.80802332,145.1956943,61.77952219,-23.85709072,143.9282765,62.47561982,241.9,432.51,246.81,420.71
0,143.5,50,-21.33467938,145.5795248,61.81188063,-23.17564563,144.3743715,62.29630655,241.9,432.51,246.67,419.91
0,143.5,50,-21.33467938,145.5795248,61.81188063,-22.67829716,144.6999511,62.16543588,241.9,432.51,246.67,419.91
0,143.5,100,-221.8271864,-37.19191379,257.8964764,-119.938074,48.39979065,186.7106472,202.53,397.78,213.01,960.98
0,143.5,100,-216.2273432,-28.52466893,258.0704997,-145.9512182,27.61817005,205.9889546,201.87,397.78,213.4,929.7
0,143.5,100,-216.5854022,-27.80985543,258.0696747,-165.0334818,12.64394465,220.0588847,202.67,397.78,212.74,929.7
0,143.5,100,-216.4954494,-27.91833869,258.0752264,-178.936252,1.685791842,230.3292355,202.4,397.78,212.87,929.7
0,143.5,100,-221.9003715,-36.94736484,257.9911211,-190.5432758,-8.751195419,237.8022658,202.53,397.78,212.87,960.98
0,143.5,100,-218.5808685,-31.90613973,257.9938348,-198.1178056,-15.00664746,243.2571436,202.53,397.78,213.4,941.89
0,143.5,100,-221.3405519,-36.56767836,257.9889183,-204.3915748,-20.83149389,247.237024,202.53,397.78,213.4,958.06
0,143.5,100,-219.482862,-32.69681633,258.0005207,-208.4685798,-24.03698446,250.1448495,202.53,397.78,212.74,946.66
0,143.5,100,-220.0249352,-33.99834583,257.998686,-211.590601,-26.72810811,252.2666122,202.14,397.78,212.74,950.77
0,143.5,100,-11.1465603,138.1579725,109.3700584,-157.4393982,17.81689083,213.6622205,202.14,397.78,212.48,397.78
0,143.5,150,-19.26924628,137.2128136,160.4791838,-10.92868238,140.036198,159.5277201,173.37,377.37,176.42,400.56
0,143.5,150,-7.149075182,141.7330108,159.5914632,-9.907598016,140.4946025,159.5449407,172.71,377.37,176.42,379.22
0,143.5,150,-7.685208032,141.6223856,159.3891938,-9.307205557,140.7992801,159.5028647,172.98,377.37,176.42,380.28
0,143.5,150,-7.685208032,141.6223856,159.3891938,-8.86901285,141.0216472,159.4721558,172.98,377.37,176.42,380.28
0,143.5,150,-7.877097403,141.4910563,159.5284155,-8.60104073,141.148461,159.4873547,172.84,377.37,176.42,380.55
0,143.5,150,-7.594196774,142.2815691,158.5554609,-8.329035581,141.4545772,159.2355978,174.17,377.37,176.16,380.55
0,143.5,150,-6.377073206,142.7718026,158.4728838,-7.80170082,141.8104338,159.0295459,174.17,377.37,176.16,378.43
0,143.5,150,-6.273163361,142.5749962,158.1247049,-7.38875693,142.0169851,158.7850975,174.17,377.37,176.55,378.43
0,143.5,150,-8.133430324,141.9048299,158.3674305,-7.589935074,141.9866857,158.6722621,174.17,377.37,176.42,381.61
0,143.5,150,-8.345126894,141.5089976,159.0927823,-7.793954835,141.8576353,158.7858683,173.37,377.37,176.42,381.61
0,143.5,100,-10.50024368,141.96659,109.0880025,-13.30381722,143.4244174,110.3907739,203.59,401.22,211.28,393.4
0,143.5,100,-11.17834608,142.1773859,109.221779,-12.72960798,143.0875241,110.0749627,203.99,401.22,210.75,394.46
0,143.5,100,-11.17834608,142.1773859,109.221779,-12.31052494,142.8416446,109.8444698,203.99,401.22,210.75,394.46
0,143.5,100,-11.87685813,140.6243683,109.5780192,-12.19336716,142.2426336,109.7724865,202.67,401.22,211.68,395.39
0,143.5,100,-11.6652849,140.9985259,109.0922309,-12.05070246,141.9065302,109.5887112,203.33,401.22,211.68,395.39
0,143.5,100,-11.08526203,141.4137198,108.302768,-11.78988273,141.7733944,109.2413057,204.12,401.22,211.95,394.99
0,143.5,100,-11.04020786,141.4934024,108.2005348,-11.58735341,141.6977528,108.960135,204.26,401.22,211.95,394.99
0,143.5,100,-11.27552867,141.3139642,109.6162818,-11.50311202,141.5940699,109.1373971,202.93,401.22,211.28,394.33
0,143.5,100,-11.06369828,141.6889853,109.1321826,-11.38440166,141.6197119,109.1359884,203.59,401.22,211.28,394.33
0,143.5,100,-12.26978022,141.0962446,109.2331744,-11.62359218,141.478294,109.1622438,203.59,401.22,211.28,396.32
0,71.75,50,-19.15547825,74.4602872,61.83547997,-19.55542633,73.11337511,62.40692145,209.29,408.78,292.53,449.6
0,71.75,50,-18.36782656,73.95183439,62.06725444,-19.23458887,73.33989009,62.3151583,208.37,408.78,293.33,448.15
0,71.75,50,-17.96795939,74.53276281,61.20546052,-18.89240105,73.66215206,62.01536655,209.43,408.78,293.33,448.15
0,71.75,50,-17.96795939,74.53276281,61.20546052,-18.64265739,73.89735296,61.79656541,209.43,408.78,293.33,448.15
0,71.75,50,-18.65831231,74.71442562,62.37808868,-18.64688667,74.11809022,61.95366753,208.5,408.78,292.4,448.15
0,71.75,50,-16.95647469,75.2516821,61.81415275,-18.19021137,74.42433711,61.91597675,208.5,408.78,293.06,445.63
0,71.75,50,-16.65742989,75.68625019,61.17513471,-17.77612093,74.76525077,61.71583367,209.29,408.78,293.06,445.63
0,71.75,50,-17.33727402,75.14997332,61.83593874,-17.65756371,74.86918595,61.7482808,208.63,408.78,292.93,446.29
0,71.75,50,-17.28815839,75.22136994,61.73058168,-17.55776657,74.96433064,61.74349927,208.76,408.78,292.93,446.29
0,71.75,50,-16.61431695,74.89883862,61.30476592,-17.30288779,74.94663757,61.62497273,208.76,408.78,293.73,445.63
0,71.75,100,-7.0528324,72.53569157,107.4720304,-10.20217975,70.79394741,107.6200225,165.95,377.76,264.96,422.83
0,71.75,100,-9.026480721,71.73030669,107.414396,-9.884557356,71.04691069,107.5644712,166.48,377.76,264.57,426.67
0,71.75,100,-12.24824915,69.42303555,107.5818138,-10.52312338,70.60821073,107.5691564,166.61,377.76,264.83,433.04
0,71.75,100,-11.76601444,70.13092144,106.2331859,-10.85889812,70.47926806,107.2082357,168.2,377.76,264.83,433.04
0,71.75,100,-8.903807425,72.0014738,105.8968048,-10.33071822,70.8905014,106.8539445,168.2,377.76,264.83,427.6
0,71.75,100,-9.52672813,72.33428204,107.170129,-10.1135153,71.28054771,106.9393637,167.28,377.76,263.77,427.6
0,71.75,100,-8.887602897,70.93085917,106.2373845,-9.782327452,71.18607718,106.7497197,167.28,377.76,265.76,427.6
0,71.75,100,-8.847638424,70.98930387,106.127823,-9.529815405,71.13291765,106.5817104,167.41,377.76,265.76,427.6
0,71.75,100,-10.30507761,71.51544233,108.7180756,-9.739257304,71.23625907,107.1588627,165.55,377.76,263.64,428
0,71.75,100,-10.18372088,71.69382919,108.3790395,-9.8593319,71.35987448,107.4885011,165.95,377.76,263.64,428
0,71.75,150,-18.64926824,73.62646935,158.3539524,-18.48554004,72.87037495,158.1745244,123.4,374.18,240.71,413.55
0,71.75,150,-18.20934278,72.5729755,157.3505473,-18.41092363,72.79003064,157.9519218,123.4,374.18,242.3,413.55
0,71.75,150,-18.17607857,72.62343471,157.2109863,-18.34747878,72.74502371,157.7517535,123.54,374.18,242.3,413.55
0,71.75,150,-18.32279482,72.97496306,157.5430451,-18.34081026,72.80714326,157.6953696,123.54,374.18,241.77,413.55
0,71.75,150,-18.29192945,73.02185347,157.4133357,-18.3276048,72.86514855,157.6191764,123.67,374.18,241.77,413.55
0,71.75,150,-19.02538973,74.77388011,159.1055597,-18.51611573,73.38080424,158.0207321,123.67,374.18,239.12,413.55
0,71.75,150,-18.11928676,72.85050048,156.9038166,-18.40890992,73.23753939,157.7189904,123.93,374.18,242.17,413.55
0,71.75,150,-18.0549233,72.94819522,156.6353498,-18.31327824,73.15937126,157.4262382,124.2,374.18,242.17,413.55
0,71.75,150,-18.83873446,75.05949424,158.3126192,-18.4552335,73.67270129,157.6656995,124.46,374.18,239.12,413.55
0,71.75,150,-17.92069418,72.86992069,156.2154857,-18.31082438,73.45582512,157.2739152,124.46,374.18,242.43,413.55
0,0,50,-8.790997978,-3.601229119,55.15042463,-65.68629503,28.57800207,95.32875992,201.61,396.45,357.88,486.06
0,0,50,-11.06903898,1.653368802,56.01378283,-50.93110403,21.30414514,84.70757464,201.61,396.45,351.78,486.06
0,0,50,-11.17702798,1.518704303,56.2701312,-40.19129344,15.95898539,77.02502264,201.34,396.45,351.78,486.06
0,0,50,-11.17702798,1.518704303,56.2701312,-32.35290939,12.05785376,71.41795979,201.34,396.45,351.78,486.06
0,0,50,-8.314689936,-5.473150698,55.42965162,-25.85883509,7.321744002,67.09861902,201.08,396.45,359.74,486.06
0,0,50,-13.76726964,0.335299266,57.50284395,-22.59222357,5.434312558,64.50626078,201.08,396.45,350.72,490.03
0,0,50,-14.08350297,-0.060027527,58.2688399,-20.29353984,3.949982454,62.82118278,200.28,396.45,350.72,490.03
0,0,50,-271.0892624,147.0896325,258.0006338,-88.0475622,42.62004808,115.5501239,200.28,800.06,349.4,491.62
0,0,50,-271.3033917,147.7343127,258.0325426,-137.5552629,71.01731963,154.0426344,201.08,800.06,349.4,491.62
0,0,50,-270.6235581,148.6252845,258.003708,-173.5044895,91.98359342,182.1283642,201.08,800.06,349.27,489.24
0,0,50,-11.33251789,0.412018071,57.06826048,-12.22672829,0.058163009,57.93614005,200.81,395.66,351.78,487.12
0,0,50,-11.01355084,0.809266199,56.30730981,-11.89898087,0.261078201,57.49610144,201.61,395.66,351.78,487.12
0,0,50,-61.30319663,-56.32062773,89.83668587,-25.24583665,-15.02482113,66.23311122,201.87,395.66,358.68,587.85
0,0,50,-60.89914059,-57.27354731,89.90019012,-34.87779818,-26.43857695,72.6269196,201.87,395.66,359.6,587.85
0,0,50,-61.49737125,-58.01073735,92.0786368,-42.06924121,-34.96799221,77.88192184,200.15,395.66,359.6,587.85
0,0,50,-65.15513226,-57.44885905,258.0036484,-48.30603808,-41.04133803,126.5429251,25.45,395.66,350.06,587.85
0,0,50,-65.55732768,-47.980853,91.18143866,-52.96658113,-42.91609111,116.9897999,200.55,395.66,350.06,587.85
0,0,50,-62.05534187,-56.19290081,91.45682905,-55.4219663,-46.50290372,110.0919092,200.55,395.66,358.01,587.85
0,0,50,-61.87185984,-55.96600098,90.788059,-57.16444511,-49.05941823,104.8768542,201.08,395.66,358.01,587.85
0,0,50,-64.82344102,-49.37507539,90.87328701,-59.23357043,-49.14469497,101.0937035,200.81,395.66,351.52,587.85
0,0,100,-236.0435145,123.1649047,257.9930954,-236.4430625,115.7062599,257.8336275,154.68,764.94,325.54,468.82
0,0,100,-239.0999391,112.0439299,258.0122513,-237.1608343,114.7168587,257.8818838,154.68,764.94,341.84,468.82
0,0,100,-238.0982661,114.327453,258.0809659,-237.4140873,114.6116583,257.9356671,153.89,764.94,337.73,468.82
0,0,100,-238.0621545,114.9598765,257.9006714,-237.5891667,114.7057316,257.9262128,154.15,764.94,337.07,468.82
0,0,100,-238.4938983,115.8693744,258.0035189,-237.8335856,115.020097,257.9470975,155.48,764.94,337.07,468.82
0,0,100,-238.3944629,116.2364667,258.1647178,-237.9851101,115.3487068,258.005889,155.48,764.94,336.54,468.82
0,0,100,-259.6501175,90.60766144,258.0106383,-243.8380464,108.6647597,258.007172,155.48,764.94,340.38,550.61
0,0,100,-259.5571405,90.44617825,257.9979641,-248.0846573,103.7428968,258.0046845,155.21,764.94,340.38,550.61
0,0,100,-259.8753089,91.89969936,258.0744648,-251.2699751,100.5433834,258.023536,156.54,764.94,339.46,550.61
0,0,100,-260.530674,88.83956595,258.0650139,-253.7718104,97.38152442,258.0347416,156.54,764.94,343.83,550.61
0,0,150,-197.2544385,80.72920136,257.9501407,-199.6870528,82.06713338,258.0000187,106.17,710.33,323.29,454.64
0,0,150,-197.2544385,80.72920136,257.9501407,-199.029867,81.70568274,257.9865439,106.17,710.33,323.29,454.64
0,0,150,-197.0925066,82.23896574,257.9909621,-198.506477,81.84975245,257.9877375,106.44,710.33,321.17,454.64
0,0,150,-197.1398964,82.30735058,257.9883435,-198.1372868,81.97337543,257.9879012,106.57,710.33,321.17,454.64
0,0,150,-197.9118458,78.19390627,257.9916224,-198.0763825,80.95232836,257.9889065,106.57,710.33,327.53,454.64
0,0,150,-198.1549439,78.55173248,258.0078652,-198.0976063,80.30379247,257.9940283,107.23,710.33,327.53,454.64
0,0,150,-198.3561556,77.42233089,257.9997871,-198.167455,79.52534772,257.9955841,107.23,710.33,329.25,454.64
0,0,150,-198.7439244,77.96914172,258.0252359,-198.3231918,79.10492901,258.0035947,108.29,710.33,329.25,454.64
0,0,150,-198.7439244,77.96914172,258.0252359,-198.4368554,78.79808902,258.0094412,108.29,710.33,329.25,454.64
0,0,150,-198.7015466,77.92547558,258.0006826,-198.5083633,78.56234708,258.007075,108.16,710.33,329.25,454.64
0,288,50,-188.2292078,438.3354523,257.9862223,-188.1565267,437.7367186,257.6016642,344.76,962.17,204.65,396.72
0,288,50,-190.364783,436.6468111,257.9937868,-188.7531008,437.4422733,257.7075986,344.89,962.17,203.2,400.43
0,288,50,-190.9150325,435.3376199,257.9869631,-189.3371601,436.8736881,257.7830706,343.17,962.17,203.2,400.43
0,288,50,-191.2575867,435.4247528,258.0402842,-189.8559753,436.4822493,257.8525585,343.17,962.17,204.39,400.43
0,288,50,-188.8022784,437.5032485,257.9927918,-189.5713125,436.7580785,257.8904434,344.1,962.17,204.39,397.25
0,288,50,-195.3796415,433.4094629,257.800903,-191.1404687,435.8534292,257.8662535,344.1,962.17,204.52,407.19
0,288,50,-189.5880871,437.0717082,258.0035766,-190.7210832,436.1825549,257.9033522,344.1,962.17,204.52,398.44
0,288,50,-189.5880871,437.0717082,258.0035766,-190.4149972,436.4227652,257.9304284,344.1,962.17,204.52,398.44
0,288,50,-188.9670228,438.453062,258.002136,-190.0238179,436.9712625,257.9498007,345.82,962.17,204.52,398.44
0,288,50,-183.0022212,442.0286214,258.0080626,-188.12689,438.3375394,257.9655405,345.82,962.17,204.26,389.69
0,288,100,-167.4877442,420.1848109,257.9968678,-171.378715,418.6154896,257.9843795,312.95,965.62,155.35,365.3
0,288,100,-167.4870431,421.5414605,257.9995476,-170.3273556,419.4059588,257.9884773,314.54,965.62,157.2,365.3
0,288,100,-167.2528682,421.5425618,258.0074831,-169.4967638,419.9831754,257.9936118,314.54,965.62,156.54,365.3
0,288,100,-167.8799515,420.5382373,258.0667407,-169.0599719,420.1331288,258.013368,313.08,965.62,157.2,365.3
0,288,100,-167.4534229,421.426775,258.0042564,-168.6259527,420.4826154,258.0109065,314.27,965.62,157.07,365.3
0,288,100,-167.5239831,421.2475545,258.0078998,-168.3282488,420.6892684,258.0100942,314.01,965.62,157.07,365.3
0,288,100,-167.3734557,421.1510276,258.0071437,-168.0703055,420.8140155,258.0092971,314.01,965.62,156.41,365.3
0,288,100,-168.0340114,419.8433456,258.0070033,-168.0605004,420.551783,258.0086774,312.15,965.62,156.8,365.3
0,288,100,-167.7502164,419.8444651,257.994077,-167.9766753,420.3606967,258.004733,312.28,965.62,155.88,365.3
0,288,100,-167.5200052,421.354291,258.0043295,-167.853303,420.6291224,258.004624,314.14,965.62,157.2,365.3
0,288,150,-148.2697779,404.7670513,257.996472,-145.1311529,402.5688328,257.7413645,295.32,953.55,107.1,348.07
0,288,150,-131.1351889,392.6787315,258.0717601,-141.3500563,399.8969605,257.830623,298.76,873.89,107.1,348.07
0,288,150,-135.9371526,391.129249,257.9969533,-139.8877268,397.5283088,257.8755581,297.17,879.86,107.1,353.9
0,288,150,-135.299928,392.9172753,257.9986187,-138.6483044,396.2826095,257.9088037,299.96,879.86,107.1,353.9
0,288,150,-135.281208,392.9920506,258.1513182,-137.7386624,395.3936446,257.9743205,299.96,879.86,107.23,353.9
0,288,150,-134.1856373,394.7050385,257.9980848,-136.7787906,395.2076134,257.9807406,303.27,878.13,107.1,353.9
0,288,150,-134.2149035,394.7256888,258.0034062,-136.0861406,395.0774184,257.9868638,303.27,878.13,107.23,353.9
0,288,150,-135.9051023,389.8949917,258.072768,-136.0372319,393.6773537,258.0100714,295.58,878.13,107.23,353.9
0,288,150,-133.2937595,391.2848711,257.9921763,-135.2960658,393.0310096,258.0052369,295.58,878.13,107.5,349
0,288,150,-133.211925,391.3702199,258.0429192,-134.7330223,392.582337,258.015417,295.72,878.13,107.36,349
329,287,50,314.8007305,295.7044834,54.85676358,314.8076835,298.7861929,55.76584897,470.55,364.11,380.02,200.94
329,287,50,604.488061,125.2051223,258.0136091,393.066637,251.8921884,110.4043377,469.35,358.54,829.62,200.94
329,287,50,602.8324798,127.3690946,257.9433567,449.7361824,218.2515011,150.2629202,469.35,358.01,824.32,200.68
329,287,50,607.0912241,127.9517039,257.9403414,492.2466244,193.85645,179.3526444,478.63,358.01,830.42,200.68
329,287,50,608.5770909,128.4112443,258.2051602,523.6740226,176.1760211,200.6551413,478.63,360.53,833.47,200.68
329,287,50,606.8742109,122.4721179,257.9928968,546.1510703,161.6675781,216.1452922,468.03,360.53,837.71,201.08
329,287,50,603.5424503,130.8207536,257.999242,561.6557081,153.3341168,227.4523967,467.5,363.18,824.45,200.15
329,287,50,606.6144927,125.8557642,257.9940132,573.801603,145.9106692,235.7034041,467.5,363.18,835.45,200.28
329,287,50,605.3604319,123.8127952,258.0758107,582.3274167,139.9407913,241.7474487,469.09,359.07,831.87,201.74
329,287,50,604.8551722,132.316906,257.9688157,588.4134298,137.8811513,246.1297518,478.37,359.07,821.4,200.94
329,287,50,328.3080188,283.8185659,56.30212246,325.8336823,288.5225964,55.97324609,475.45,350.46,387.84,200.41
329,287,50,319.2474136,284.8589882,56.8919079,324.0543609,287.5328499,56.22142829,470.55,350.46,379.09,200.41
329,287,50,315.5154524,293.5486786,55.80716606,321.7475217,289.1580634,56.10951277,470.55,360.8,379.09,200.41
329,287,50,321.8808972,289.6351494,53.49824506,321.783554,289.2869511,55.40406258,470.55,360.8,387.97,201.08
329,287,50,68.86044649,25.63344561,257.8832278,253.4548053,218.0593188,110.1050668,25.71,365.04,387.97,200.41
329,287,50,320.6883981,294.5044083,53.5535312,271.6183781,238.7114346,94.82731819,472.4,365.04,387.17,201.08
329,287,50,317.7609079,292.1980368,52.91535716,284.0840692,253.1611725,83.50454157,467.76,364.77,386.25,201.08
329,287,50,319.4515008,293.9581823,53.31307821,293.6388005,264.1827381,75.3481302,471.34,364.77,386.25,201.34
329,287,50,320.1270076,295.661267,54.45352749,300.7947542,272.6868582,69.70332348,473.33,364.77,385.45,200.68
329,287,50,313.2545086,295.5956138,56.44505791,304.1608343,278.8758008,66.12152068,471.61,361.06,375.64,200.68
329,287,100,329.9911469,277.9012764,101.1994579,327.873431,282.633641,100.750919,450.93,324.74,371.93,154.29
329,287,100,328.3713751,282.2216894,100.5712031,328.0079537,282.5223497,100.7023676,450.93,330.05,371.93,154.15
329,287,100,329.0376557,282.8617142,100.8896326,328.2861341,282.6140311,100.7529584,452.26,330.05,371.93,154.02
329,287,100,327.5457976,286.7186541,100.3274107,328.0861276,283.7229205,100.637994,452.26,334.82,371.93,154.02
329,287,100,328.6696231,287.8701776,101.3830882,328.2437625,284.8433278,100.8392858,454.11,334.82,371.93,153.23
329,287,100,331.6835969,276.7402877,102.0915191,329.1730552,282.6542412,101.1775844,452.65,322.23,371.93,154.02
329,287,100,324.480239,279.9931128,103.018288,327.9052617,281.9353208,101.6748619,452.65,322.23,362.12,154.15
329,287,100,322.2958525,282.5972428,102.2533948,326.389845,282.1141432,101.8311562,450.8,326.47,362.12,154.15
329,287,100,326.6607452,281.3828814,101.4086967,326.4630304,281.9165883,101.7170261,452.39,326.47,367.29,154.55
329,287,100,586.6639328,137.6182706,257.9701509,396.7579205,242.9335014,143.9297784,452.39,338,843.27,154.42
329,287,150,527.7622163,193.4196968,257.9983887,548.457466,217.2108716,257.992384,449.6,311.89,721.06,108.16
329,287,150,526.8608406,193.2990418,258.0377433,542.6230035,210.7509422,258.0046381,447.22,311.89,721.06,107.36
329,287,150,527.9306501,196.3821845,257.9920119,538.6537729,206.8691331,258.001227,447.22,317.45,721.06,108.16
329,287,150,528.5872494,196.9816436,257.9804075,535.9342391,204.1979664,257.9956025,449.74,317.45,721.06,108.16
329,287,150,528.5872494,196.9816436,257.9804075,533.9494042,202.2484319,257.9914975,449.74,317.45,721.06,108.16
329,287,150,627.4867123,300.7219837,257.9943173,559.219089,228.8516737,257.9922593,886.62,317.45,721.06,108.29
329,287,150,627.5344562,300.6871092,258.000708,577.6749098,248.2584628,257.9945418,886.62,317.45,721.06,108.42
329,287,150,627.5848014,300.6508434,257.9826357,591.158377,262.4125899,257.9913253,886.62,317.45,721.06,108.56
329,287,150,528.0720847,196.160097,257.9909355,574.1152233,244.5140674,257.99122,447.22,317.45,721.06,108.56
329,287,150,642.5792616,317.0041214,258.0203979,592.6112085,264.0977058,257.9991026,959.78,317.45,721.06,108.82
